1.0.1.0/22
1.0.8.0/21
1.0.32.0/19
1.1.0.0/24
1.1.2.0/18
1.2.0.0/22
1.2.4.0/17
1.3.0.0/16
1.4.1.0/17
1.8.0.0/16
1.10.0.0/20
1.10.11.0/17
1.12.0.0/14
1.24.0.0/13
1.45.0.0/16
1.48.0.0/14
1.56.0.0/13
1.68.0.0/14
1.80.0.0/12
1.116.0.0/14
1.180.0.0/13
1.188.0.0/12
1.202.0.0/13
5.42.192.0/24
5.181.224.0/24
5.181.227.0/24
8.128.0.0/10
14.0.0.0/21
14.0.12.0/22
14.1.0.0/22
14.1.24.0/22
14.1.96.0/22
14.1.108.0/22
14.16.0.0/12
14.102.128.0/22
14.102.156.0/22
14.102.180.0/22
14.103.0.0/11
14.130.0.0/15
14.134.0.0/15
14.144.0.0/12
14.192.60.0/22
14.192.76.0/22
14.196.0.0/15
14.204.0.0/15
14.208.0.0/12
15.230.41.0/24
15.230.49.0/24
15.230.141.0/24
17.81.2.0/24
17.81.7.0/23
17.81.15.0/20
17.81.28.0/20
17.81.41.0/19
17.81.67.0/24
17.81.76.0/23
17.81.129.0/24
17.81.131.0/24
17.81.133.0/24
17.81.135.0/24
17.81.137.0/23
17.81.141.0/24
17.81.143.0/23
17.81.146.0/20
17.81.156.0/22
17.81.171.0/24
17.85.192.0/20
17.87.0.0/18
17.87.50.0/24
17.87.52.0/24
17.87.54.0/24
17.87.56.0/21
17.87.72.0/20
17.87.96.0/19
17.87.136.0/21
17.87.144.0/20
17.87.240.0/23
17.87.245.0/24
17.88.0.0/18
17.88.78.0/19
17.88.106.0/22
17.88.112.0/21
17.88.128.0/17
17.93.8.0/21
17.93.24.0/21
17.93.48.0/19
17.93.96.0/19
17.93.136.0/21
17.93.152.0/21
17.93.184.0/21
17.93.200.0/19
17.93.232.0/21
17.94.16.0/16
17.127.128.0/23
17.235.160.0/20
27.0.128.0/21
27.0.160.0/21
27.0.188.0/22
27.0.204.0/20
27.8.0.0/11
27.34.232.0/21
27.36.0.0/12
27.50.40.0/21
27.50.128.0/17
27.54.72.0/21
27.54.152.0/21
27.54.192.0/18
27.98.208.0/18
27.99.128.0/17
27.103.0.0/16
27.106.128.0/18
27.106.204.0/22
27.109.32.0/19
27.109.124.0/22
27.112.0.0/18
27.112.80.0/20
27.112.112.0/21
27.113.128.0/18
27.115.0.0/17
27.116.44.0/22
27.121.72.0/21
27.121.120.0/21
27.128.0.0/15
27.131.220.0/22
27.144.0.0/16
27.148.0.0/12
27.184.0.0/10
36.0.0.0/22
36.0.8.0/15
36.4.0.0/14
36.16.0.0/11
36.37.36.0/23
36.37.39.0/19
36.40.0.0/12
36.51.0.0/16
36.56.0.0/13
36.96.0.0/9
36.248.0.0/14
36.254.0.0/16
36.255.116.0/22
36.255.128.0/22
36.255.164.0/22
36.255.172.0/21
38.60.251.0/24
38.106.42.0/24
38.130.106.0/24
39.0.0.0/24
39.0.2.0/16
39.64.0.0/10
39.128.0.0/10
40.72.0.0/15
40.125.128.0/17
40.126.64.0/18
42.0.0.0/22
42.0.8.0/19
42.0.32.0/19
42.0.128.0/16
42.1.128.0/17
42.4.0.0/14
42.48.0.0/12
42.62.0.0/16
42.62.180.0/20
42.63.0.0/16
42.80.0.0/15
42.83.64.0/19
42.83.88.0/12
42.96.64.0/18
42.96.108.0/15
42.99.0.0/17
42.99.120.0/21
42.100.0.0/14
42.120.0.0/14
42.123.36.0/16
42.128.0.0/12
42.156.0.0/19
42.156.36.0/11
42.187.128.0/17
42.192.0.0/13
42.201.0.0/17
42.202.0.0/10
42.242.0.0/9
43.136.0.0/12
43.176.0.0/11
43.224.12.0/22
43.224.24.0/22
43.224.44.0/22
43.224.52.0/21
43.224.68.0/21
43.224.80.0/22
43.224.100.0/22
43.224.144.0/22
43.224.160.0/22
43.224.176.0/22
43.224.184.0/22
43.224.200.0/19
43.224.240.0/22
43.225.76.0/22
43.225.84.0/22
43.225.120.0/22
43.225.180.0/22
43.225.208.0/22
43.225.216.0/19
43.225.252.0/22
43.226.32.0/17
43.226.128.0/17
43.226.236.0/19
43.227.32.0/17
43.227.136.0/20
43.227.152.0/19
43.227.188.0/18
43.227.232.0/22
43.227.238.0/24
43.227.248.0/17
43.228.76.0/22
43.228.100.0/22
43.228.116.0/21
43.228.132.0/21
43.228.148.0/21
43.228.188.0/22
43.228.204.0/22
43.228.240.0/22
43.229.40.0/22
43.229.48.0/22
43.229.56.0/22
43.229.96.0/22
43.229.136.0/20
43.229.168.0/19
43.229.216.0/21
43.229.232.0/21
43.230.20.0/22
43.230.32.0/22
43.230.68.0/21
43.230.124.0/22
43.230.136.0/22
43.230.220.0/18
43.231.32.0/20
43.231.80.0/19
43.231.136.0/18
43.236.0.0/15
43.237.200.0/15
43.239.116.0/21
43.239.172.0/21
43.240.0.0/22
43.240.56.0/21
43.240.68.0/20
43.240.84.0/22
43.240.124.0/20
43.240.144.0/22
43.240.156.0/17
43.240.240.0/18
43.241.48.0/22
43.241.76.0/19
43.241.112.0/22
43.241.168.0/19
43.241.208.0/18
43.241.248.0/21
43.242.8.0/19
43.242.44.0/19
43.242.72.0/19
43.242.144.0/19
43.242.180.0/22
43.242.188.0/20
43.242.204.0/22
43.242.216.0/21
43.242.252.0/22
43.243.4.0/20
43.243.88.0/22
43.243.128.0/22
43.243.136.0/22
43.243.144.0/21
43.243.156.0/22
43.243.180.0/22
43.243.228.0/21
43.243.244.0/22
43.246.0.0/17
43.246.112.0/24
43.246.228.0/22
43.247.4.0/21
43.247.44.0/21
43.247.68.0/22
43.247.76.0/22
43.247.84.0/19
43.247.108.0/21
43.247.148.0/21
43.247.176.0/20
43.247.196.0/17
43.248.20.0/22
43.248.28.0/22
43.248.48.0/22
43.248.76.0/17
43.248.176.0/18
43.248.228.0/21
43.248.244.0/22
43.249.4.0/22
43.249.120.0/22
43.249.132.0/21
43.249.144.0/19
43.249.192.0/22
43.249.236.0/22
43.250.4.0/22
43.250.12.0/20
43.250.28.0/20
43.250.72.0/22
43.250.96.0/21
43.250.108.0/21
43.250.118.0/23
43.250.128.0/22
43.250.144.0/21
43.250.160.0/22
43.250.168.0/22
43.250.176.0/22
43.250.200.0/22
43.250.212.0/20
43.250.236.0/22
43.250.244.0/22
43.251.4.0/21
43.251.36.0/22
43.251.100.0/22
43.251.192.0/22
43.251.232.0/21
43.251.244.0/22
43.252.48.0/22
43.252.56.0/22
43.254.0.0/20
43.254.24.0/22
43.254.36.0/22
43.254.44.0/22
43.254.52.0/22
43.254.64.0/22
43.254.72.0/22
43.254.84.0/20
43.254.100.0/21
43.254.112.0/21
43.254.128.0/22
43.254.136.0/19
43.254.168.0/21
43.254.180.0/19
43.254.208.0/22
43.254.220.0/19
43.254.248.0/19
43.255.16.0/22
43.255.48.0/22
43.255.64.0/20
43.255.84.0/22
43.255.96.0/22
43.255.144.0/22
43.255.168.0/22
43.255.176.0/22
43.255.184.0/22
43.255.192.0/22
43.255.200.0/20
43.255.224.0/20
43.255.244.0/22
45.13.119.0/24
45.40.192.0/19
45.40.224.0/19
45.65.16.0/20
45.66.211.0/24
45.81.35.0/24
45.86.234.0/24
45.112.132.0/22
45.112.188.0/22
45.112.208.0/20
45.112.228.0/20
45.113.12.0/19
45.113.40.0/22
45.113.52.0/21
45.113.72.0/22
45.113.144.0/21
45.113.168.0/22
45.113.176.0/22
45.113.184.0/22
45.113.192.0/22
45.113.200.0/19
45.113.240.0/22
45.113.252.0/21
45.114.32.0/22
45.114.52.0/22
45.114.96.0/22
45.114.136.0/22
45.114.196.0/21
45.114.228.0/22
45.114.252.0/22
45.115.44.0/22
45.115.100.0/22
45.115.120.0/22
45.115.132.0/22
45.115.144.0/22
45.115.156.0/22
45.115.164.0/22
45.115.200.0/22
45.115.212.0/22
45.115.228.0/22
45.115.236.0/22
45.115.244.0/21
45.116.16.0/22
45.116.24.0/22
45.116.32.0/21
45.116.52.0/22
45.116.96.0/21
45.116.140.0/22
45.116.152.0/22
45.116.208.0/22
45.117.8.0/22
45.117.20.0/22
45.117.68.0/22
45.117.124.0/22
45.117.252.0/22
45.119.52.0/22
45.119.60.0/20
45.119.104.0/22
45.119.116.0/22
45.119.232.0/22
45.120.100.0/22
45.120.140.0/22
45.120.164.0/22
45.120.240.0/22
45.121.52.0/22
45.121.64.0/20
45.121.92.0/21
45.121.172.0/21
45.121.212.0/22
45.121.240.0/18
45.122.60.0/18
45.122.160.0/18
45.123.28.0/20
45.123.44.0/18
45.123.120.0/22
45.123.128.0/20
45.123.148.0/20
45.123.164.0/19
45.123.204.0/22
45.123.212.0/22
45.123.224.0/18
45.124.20.0/22
45.124.28.0/20
45.124.44.0/22
45.124.68.0/22
45.124.76.0/21
45.124.100.0/22
45.124.124.0/22
45.124.172.0/21
45.124.208.0/22
45.124.248.0/22
45.125.16.0/22
45.125.24.0/22
45.125.44.0/22
45.125.52.0/21
45.125.76.0/19
45.125.136.0/22
45.126.48.0/21
45.126.100.0/22
45.126.108.0/20
45.126.212.0/22
45.126.220.0/22
45.127.8.0/21
45.127.128.0/22
45.127.144.0/21
45.127.156.0/22
45.127.216.0/22
45.131.212.0/24
45.132.187.0/24
45.138.103.0/24
45.138.232.0/22
45.148.127.0/24
45.248.8.0/22
45.248.80.0/20
45.248.96.0/20
45.248.128.0/21
45.248.204.0/18
45.249.12.0/19
45.249.112.0/22
45.249.188.0/19
45.250.12.0/21
45.250.28.0/20
45.250.76.0/19
45.250.104.0/18
45.250.164.0/22
45.250.180.0/20
45.251.0.0/22
45.251.8.0/22
45.251.16.0/21
45.251.52.0/22
45.251.84.0/19
45.251.120.0/21
45.251.140.0/17
45.252.0.0/18
45.252.84.0/17
45.252.192.0/18
45.253.0.0/17
45.253.92.0/19
45.253.132.0/17
45.254.0.0/19
45.254.26.0/24
45.254.28.0/22
45.254.40.0/22
45.254.48.0/16
45.254.236.0/21
45.254.248.0/22
45.255.0.0/17
45.255.136.0/17
46.235.37.0/24
46.248.24.0/23
47.89.0.0/24
47.89.59.0/24
47.89.71.0/24
47.92.0.0/10
47.235.3.0/24
47.246.103.0/24
47.246.121.0/24
47.246.147.0/24
47.246.166.0/24
47.246.176.0/24
49.4.0.0/14
49.52.0.0/14
49.64.0.0/11
49.112.0.0/12
49.128.0.0/24
49.128.2.0/23
49.128.7.0/24
49.140.0.0/15
49.152.0.0/14
49.208.0.0/14
49.213.0.0/24
49.220.0.0/14
49.232.0.0/14
49.239.0.0/18
49.239.192.0/18
52.80.0.0/14
52.130.0.0/15
54.222.0.0/15
57.92.96.0/20
57.176.0.0/15
58.14.0.0/12
58.30.0.0/10
58.65.232.0/21
58.66.0.0/15
58.68.128.0/17
58.82.0.0/17
58.83.0.0/16
58.87.64.0/18
58.99.128.0/14
58.116.0.0/14
58.128.0.0/13
58.144.0.0/16
58.154.0.0/15
58.192.0.0/11
58.240.0.0/12
59.32.0.0/10
59.82.1.0/19
59.82.19.0/22
59.82.23.0/21
59.82.31.0/17
59.82.113.0/20
59.82.125.0/23
59.82.128.0/15
59.107.0.0/13
59.151.0.0/17
59.152.16.0/20
59.152.36.0/22
59.152.64.0/20
59.152.112.0/21
59.153.4.0/22
59.153.32.0/22
59.153.60.0/20
59.153.92.0/22
59.153.116.0/22
59.153.136.0/22
59.153.152.0/22
59.153.164.0/19
59.155.0.0/16
59.172.0.0/14
59.191.0.0/17
59.192.0.0/9
60.55.0.0/16
60.63.0.0/16
60.160.0.0/11
60.194.0.0/15
60.200.0.0/11
60.232.0.0/15
60.235.0.0/16
60.245.128.0/17
60.247.0.0/16
60.252.0.0/16
60.253.128.0/17
60.255.0.0/16
61.4.80.0/20
61.4.176.0/20
61.8.160.0/20
61.14.19.0/24
61.14.52.0/24
61.14.57.0/22
61.14.212.0/20
61.14.240.0/21
61.28.0.0/17
61.28.195.0/23
61.28.212.0/24
61.29.128.0/17
61.45.128.0/18
61.45.224.0/20
61.47.128.0/18
61.48.0.0/13
61.87.192.0/18
61.128.0.0/10
61.232.0.0/13
61.240.0.0/14
62.234.0.0/16
63.162.142.0/24
63.222.65.0/24
64.101.224.0/19
66.119.149.0/24
66.201.188.0/24
66.235.178.0/23
68.79.0.0/18
69.85.93.0/24
69.230.192.0/18
69.231.128.0/18
69.234.192.0/18
69.235.128.0/18
71.131.192.0/17
71.136.64.0/18
71.137.0.0/18
72.8.158.0/24
72.8.168.0/24
72.20.48.0/24
72.20.54.0/24
80.76.36.0/22
81.68.0.0/14
82.156.0.0/15
83.97.115.0/24
84.200.200.0/24
89.19.56.0/22
91.204.225.0/24
94.191.0.0/17
98.124.140.0/24
101.0.0.0/22
101.1.0.0/22
101.2.172.0/22
101.4.0.0/14
101.16.0.0/12
101.33.128.0/14
101.36.128.0/13
101.47.0.0/15
101.49.128.0/18
101.50.8.0/21
101.50.56.0/22
101.52.0.0/16
101.53.100.0/22
101.54.0.0/16
101.55.224.0/21
101.64.0.0/12
101.78.32.0/19
101.80.0.0/11
101.96.16.0/20
101.96.128.0/17
101.99.96.0/19
101.101.64.0/19
101.101.100.0/24
101.101.102.0/19
101.102.64.0/19
101.102.100.0/22
101.102.104.0/19
101.104.0.0/14
101.110.64.0/18
101.110.116.0/20
101.120.0.0/13
101.124.24.0/14
101.128.0.0/22
101.128.8.0/18
101.129.0.0/13
101.144.0.0/12
101.192.0.0/13
101.197.87.0/15
101.198.165.0/19
101.198.193.0/21
101.198.200.0/14
101.203.128.0/18
101.203.172.0/19
101.204.0.0/14
101.224.0.0/12
101.234.64.0/21
101.234.76.0/18
101.236.0.0/12
101.251.0.0/22
101.251.8.0/14
102.38.229.0/24
103.1.8.0/22
103.1.20.0/21
103.1.72.0/22
103.1.88.0/22
103.1.168.0/22
103.2.108.0/22
103.2.156.0/22
103.2.164.0/22
103.2.200.0/20
103.3.84.0/18
103.3.148.0/20
103.4.56.0/22
103.4.168.0/22
103.4.184.0/22
103.4.224.0/22
103.5.36.0/22
103.5.52.0/23
103.5.56.0/22
103.5.152.0/22
103.5.168.0/22
103.5.192.0/22
103.5.252.0/22
103.6.76.0/22
103.6.108.0/22
103.6.220.0/22
103.6.228.0/22
103.7.140.0/22
103.7.212.0/20
103.8.0.0/20
103.8.32.0/22
103.8.52.0/22
103.8.68.0/22
103.8.108.0/22
103.8.156.0/22
103.8.200.0/21
103.8.220.0/22
103.9.8.0/22
103.9.24.0/22
103.9.108.0/22
103.9.152.0/22
103.9.248.0/20
103.10.16.0/22
103.10.84.0/22
103.10.140.0/22
103.11.16.0/22
103.11.168.0/22
103.11.180.0/22
103.12.32.0/22
103.12.69.0/22
103.12.92.0/22
103.12.98.0/23
103.12.136.0/22
103.12.184.0/22
103.12.232.0/22
103.13.12.0/22
103.13.124.0/22
103.13.144.0/22
103.13.196.0/22
103.13.244.0/22
103.14.84.0/22
103.14.100.0/22
103.14.132.0/21
103.14.156.0/22
103.14.240.0/22
103.15.4.0/21
103.15.16.0/22
103.15.96.0/22
103.15.200.0/22
103.16.52.0/22
103.16.80.0/20
103.16.108.0/22
103.16.124.0/22
103.17.40.0/22
103.17.64.0/22
103.17.120.0/22
103.17.136.0/22
103.17.160.0/22
103.17.204.0/22
103.17.228.0/22
103.18.186.0/23
103.18.192.0/22
103.18.206.0/20
103.18.224.0/22
103.19.12.0/22
103.19.40.0/21
103.19.50.0/23
103.19.64.0/20
103.19.232.0/22
103.20.12.0/22
103.20.32.0/22
103.20.44.0/22
103.20.68.0/22
103.20.112.0/22
103.20.128.0/22
103.20.160.0/22
103.20.248.0/22
103.21.112.0/21
103.21.140.0/22
103.21.176.0/22
103.21.208.0/22
103.21.240.0/22
103.22.0.0/17
103.22.100.0/19
103.22.188.0/22
103.22.228.0/22
103.22.252.0/22
103.23.8.0/22
103.23.56.0/22
103.23.160.0/21
103.23.176.0/22
103.23.228.0/22
103.24.24.0/22
103.24.116.0/22
103.24.128.0/22
103.24.144.0/22
103.24.176.0/24
103.24.178.0/23
103.24.184.0/22
103.24.220.0/22
103.24.228.0/22
103.24.252.0/22
103.25.20.0/19
103.25.48.0/22
103.25.64.0/21
103.25.148.0/22
103.25.156.0/22
103.25.216.0/22
103.26.0.0/22
103.26.64.0/22
103.26.76.0/22
103.26.132.0/22
103.26.156.0/21
103.26.228.0/22
103.26.240.0/22
103.27.4.0/22
103.27.12.0/22
103.27.24.0/22
103.27.56.0/22
103.27.96.0/22
103.27.208.0/22
103.27.240.0/22
103.28.4.0/21
103.28.184.0/22
103.28.204.0/22
103.28.212.0/22
103.29.16.0/22
103.29.24.0/23
103.29.29.0/24
103.29.128.0/20
103.29.236.0/23
103.30.20.0/22
103.30.96.0/22
103.30.104.0/22
103.30.148.0/22
103.30.200.0/22
103.30.228.0/22
103.30.236.0/22
103.31.0.0/22
103.31.48.0/19
103.31.148.0/22
103.31.160.0/22
103.31.168.0/22
103.31.200.0/22
103.31.236.0/22
103.31.242.0/23
103.32.0.0/14
103.35.104.0/22
103.35.116.0/22
103.35.220.0/22
103.36.28.0/22
103.36.36.0/22
103.36.56.0/20
103.36.72.0/22
103.36.96.0/22
103.36.132.0/21
103.36.160.0/17
103.37.12.0/21
103.37.24.0/22
103.37.44.0/22
103.37.52.0/21
103.37.72.0/22
103.37.92.0/24
103.37.100.0/21
103.37.136.0/19
103.37.172.0/21
103.37.188.0/22
103.37.208.0/20
103.37.248.0/20
103.38.32.0/22
103.38.40.0/21
103.38.56.0/22
103.38.76.0/22
103.38.84.0/22
103.38.92.0/21
103.38.116.0/22
103.38.132.0/22
103.38.140.0/22
103.38.224.0/20
103.38.252.0/23
103.39.64.0/22
103.39.88.0/22
103.39.100.0/21
103.39.160.0/19
103.39.200.0/18
103.40.12.0/18
103.40.88.0/22
103.40.158.0/23
103.40.192.0/22
103.40.212.0/22
103.40.220.0/22
103.40.228.0/19
103.41.52.0/22
103.41.116.0/22
103.41.148.0/21
103.41.160.0/21
103.41.220.0/20
103.42.8.0/22
103.42.24.0/22
103.42.32.0/22
103.42.64.0/21
103.42.76.0/22
103.42.104.0/22
103.42.232.0/22
103.43.16.0/22
103.43.96.0/20
103.43.124.0/22
103.43.132.0/22
103.43.184.0/22
103.43.192.0/21
103.43.208.0/22
103.43.220.0/21
103.43.240.0/22
103.44.56.0/22
103.44.80.0/22
103.44.120.0/21
103.44.144.0/22
103.44.168.0/22
103.44.176.0/19
103.44.224.0/22
103.44.236.0/17
103.45.72.0/16
103.45.248.0/22
103.46.0.0/22
103.46.12.0/17
103.46.152.0/19
103.46.244.0/21
103.47.4.0/22
103.47.20.0/21
103.47.36.0/21
103.47.48.0/22
103.47.80.0/22
103.47.96.0/22
103.47.108.0/22
103.47.116.0/21
103.47.136.0/21
103.47.212.0/22
103.48.52.0/22
103.48.92.0/22
103.48.148.0/20
103.48.202.0/23
103.48.216.0/19
103.49.12.0/22
103.49.20.0/22
103.49.72.0/21
103.49.96.0/22
103.49.108.0/22
103.49.176.0/21
103.49.196.0/22
103.50.36.0/22
103.50.44.0/19
103.50.108.0/19
103.50.132.0/20
103.50.172.0/19
103.50.220.0/18
103.52.40.0/22
103.52.72.0/20
103.52.96.0/20
103.52.160.0/21
103.52.172.0/21
103.52.184.0/22
103.52.196.0/22
103.53.64.0/21
103.53.92.0/22
103.53.100.0/22
103.53.124.0/19
103.53.180.0/22
103.53.204.0/20
103.53.236.0/22
103.53.248.0/22
103.54.8.0/22
103.54.48.0/22
103.54.160.0/21
103.54.212.0/22
103.54.240.0/22
103.55.80.0/22
103.55.120.0/22
103.55.152.0/22
103.55.172.0/22
103.55.204.0/21
103.55.228.0/22
103.55.236.0/22
103.56.8.0/22
103.56.16.0/21
103.56.32.0/22
103.56.56.0/21
103.56.72.0/21
103.56.94.0/23
103.56.100.0/21
103.56.140.0/22
103.56.152.0/22
103.56.184.0/22
103.56.200.0/22
103.57.12.0/22
103.57.52.0/21
103.57.76.0/22
103.57.136.0/22
103.57.196.0/22
103.58.24.0/22
103.59.76.0/22
103.59.100.0/22
103.59.112.0/20
103.59.124.0/21
103.59.148.0/22
103.59.164.0/22
103.60.32.0/22
103.60.44.0/22
103.60.164.0/22
103.60.228.0/22
103.60.236.0/22
103.61.60.0/22
103.61.104.0/22
103.61.140.0/22
103.61.152.0/20
103.61.172.0/21
103.61.188.0/22
103.62.24.0/22
103.62.52.0/22
103.62.72.0/19
103.62.96.0/18
103.62.160.0/18
103.62.204.0/19
103.63.32.0/18
103.63.140.0/21
103.63.152.0/22
103.63.160.0/19
103.63.192.0/19
103.63.240.0/19
103.64.24.0/17
103.64.140.0/21
103.64.152.0/17
103.65.48.0/18
103.65.100.0/20
103.65.144.0/19
103.66.32.0/22
103.66.40.0/22
103.66.92.0/22
103.66.108.0/22
103.66.200.0/22
103.66.240.0/19
103.67.100.0/18
103.67.192.0/22
103.67.212.0/22
103.68.88.0/22
103.68.100.0/22
103.68.128.0/22
103.69.16.0/22
103.69.116.0/22
103.70.8.0/22
103.70.148.0/22
103.70.220.0/21
103.70.236.0/22
103.70.252.0/21
103.71.48.0/22
103.71.68.0/21
103.71.80.0/20
103.71.120.0/20
103.71.144.0/22
103.71.196.0/21
103.71.232.0/22
103.72.12.0/18
103.72.112.0/19
103.72.149.0/22
103.72.172.0/22
103.72.180.0/22
103.72.224.0/18
103.73.48.0/22
103.73.116.0/21
103.73.128.0/19
103.73.168.0/22
103.73.176.0/22
103.73.204.0/21
103.73.240.0/20
103.74.24.0/19
103.74.56.0/21
103.74.80.0/22
103.74.124.0/22
103.74.148.0/20
103.74.204.0/22
103.74.232.0/22
103.75.88.0/21
103.75.104.0/20
103.75.120.0/22
103.75.128.0/22
103.75.144.0/22
103.75.152.0/22
103.76.60.0/20
103.76.92.0/22
103.76.216.0/20
103.77.28.0/22
103.77.52.0/21
103.77.72.0/22
103.77.88.0/21
103.77.132.0/22
103.77.148.0/22
103.77.220.0/22
103.78.56.0/20
103.78.124.0/22
103.78.172.0/21
103.78.196.0/22
103.78.228.0/22
103.79.24.0/21
103.79.36.0/20
103.79.52.0/19
103.79.80.0/21
103.79.136.0/22
103.79.188.0/19
103.79.228.0/23
103.79.240.0/22
103.80.28.0/22
103.80.44.0/22
103.80.72.0/22
103.80.133.0/24
103.80.176.0/20
103.80.192.0/22
103.80.200.0/22
103.80.232.0/22
103.81.4.0/21
103.81.16.0/21
103.81.44.0/21
103.81.96.0/22
103.81.120.0/22
103.81.148.0/22
103.81.164.0/22
103.81.200.0/22
103.81.232.0/22
103.82.52.0/22
103.82.60.0/22
103.82.68.0/22
103.82.84.0/22
103.82.104.0/22
103.82.224.0/22
103.82.236.0/22
103.83.44.0/22
103.83.52.0/22
103.83.60.0/21
103.83.72.0/22
103.83.112.0/22
103.83.120.0/23
103.83.180.0/22
103.84.0.0/22
103.84.12.0/19
103.84.48.0/22
103.84.64.0/22
103.84.72.0/22
103.85.44.0/21
103.85.84.0/22
103.85.136.0/22
103.85.144.0/22
103.85.164.0/20
103.85.224.0/22
103.86.28.0/21
103.86.60.0/22
103.86.80.0/22
103.86.204.0/18
103.87.20.0/22
103.87.32.0/22
103.87.72.0/22
103.87.96.0/22
103.87.132.0/22
103.87.180.0/22
103.87.224.0/22
103.88.4.0/19
103.88.32.0/21
103.88.60.0/21
103.88.72.0/22
103.88.96.0/22
103.88.164.0/22
103.88.176.0/22
103.88.212.0/22
103.89.28.0/22
103.89.96.0/19
103.89.148.0/22
103.89.172.0/22
103.89.184.0/18
103.90.52.0/22
103.90.92.0/22
103.90.100.0/18
103.90.152.0/22
103.90.168.0/22
103.90.173.0/24
103.90.176.0/22
103.90.188.0/21
103.91.36.0/21
103.91.108.0/21
103.91.138.0/23
103.91.152.0/22
103.91.176.0/22
103.91.200.0/22
103.91.208.0/21
103.91.236.0/22
103.91.252.0/19
103.92.48.0/18
103.92.88.0/22
103.92.108.0/22
103.92.124.0/21
103.92.132.0/22
103.92.156.0/22
103.92.164.0/19
103.92.236.0/19
103.93.28.0/22
103.93.84.0/22
103.93.152.0/22
103.93.180.0/22
103.93.204.0/22
103.94.12.0/22
103.94.20.0/22
103.94.28.0/19
103.94.72.0/22
103.94.88.0/22
103.94.116.0/22
103.94.160.0/22
103.94.200.0/22
103.95.52.0/22
103.95.64.0/21
103.95.88.0/21
103.95.116.0/22
103.95.128.0/22
103.95.136.0/20
103.95.152.0/22
103.95.207.0/24
103.95.216.0/20
103.95.236.0/19
103.96.8.0/22
103.96.80.0/22
103.96.124.0/22
103.96.136.0/21
103.96.152.0/17
103.97.8.0/18
103.97.56.0/19
103.97.112.0/21
103.97.144.0/21
103.97.188.0/21
103.97.228.0/23
103.98.28.0/23
103.98.40.0/20
103.98.56.0/22
103.98.80.0/22
103.98.88.0/20
103.98.124.0/22
103.98.136.0/20
103.98.164.0/21
103.98.180.0/22
103.98.196.0/22
103.98.216.0/19
103.98.240.0/20
103.99.40.0/23
103.99.53.0/20
103.99.76.0/23
103.99.79.0/24
103.99.104.0/22
103.99.116.0/21
103.99.152.0/22
103.99.220.0/22
103.99.232.0/21
103.100.0.0/22
103.100.32.0/22
103.100.40.0/22
103.100.48.0/20
103.100.64.0/21
103.100.88.0/22
103.100.116.0/22
103.100.144.0/22
103.100.236.0/21
103.100.248.0/21
103.101.6.0/20
103.101.31.0/24
103.101.60.0/22
103.101.120.0/22
103.101.126.0/23
103.101.144.0/21
103.101.153.0/24
103.101.180.0/21
103.102.76.0/21
103.102.168.0/21
103.102.180.0/19
103.102.208.0/21
103.103.12.0/21
103.103.36.0/22
103.103.68.0/21
103.103.176.0/22
103.103.188.0/22
103.103.200.0/21
103.103.220.0/20
103.103.241.0/24
103.103.248.0/20
103.104.36.0/21
103.104.64.0/22
103.104.152.0/22
103.104.172.0/22
103.104.188.0/22
103.104.252.0/20
103.105.12.0/21
103.105.23.0/24
103.105.60.0/22
103.105.116.0/22
103.105.180.0/21
103.105.200.0/21
103.105.220.0/22
103.106.36.0/20
103.106.60.0/22
103.106.68.0/22
103.106.96.0/22
103.106.120.0/22
103.106.128.0/21
103.106.160.0/22
103.106.188.0/22
103.106.196.0/22
103.106.202.0/23
103.106.212.0/22
103.106.252.0/21
103.107.28.0/21
103.107.44.0/22
103.107.72.0/22
103.107.108.0/22
103.107.164.0/21
103.107.188.0/21
103.107.208.0/20
103.108.52.0/22
103.108.160.0/21
103.108.184.0/23
103.108.192.0/21
103.108.208.0/20
103.108.224.0/22
103.108.244.0/22
103.109.20.0/22
103.109.48.0/22
103.109.88.0/22
103.109.106.0/23
103.109.248.0/22
103.110.80.0/23
103.110.92.0/22
103.110.116.0/22
103.110.132.0/21
103.110.152.0/21
103.110.188.0/22
103.110.204.0/22
103.111.64.0/22
103.111.172.0/22
103.111.252.0/22
103.112.28.0/22
103.112.68.0/21
103.112.88.0/21
103.112.108.0/21
103.112.140.0/22
103.112.172.0/22
103.112.184.0/22
103.113.4.0/22
103.113.144.0/22
103.113.220.0/22
103.113.232.0/21
103.114.4.0/22
103.114.28.0/22
103.114.68.0/21
103.114.100.0/22
103.114.148.0/22
103.114.156.0/22
103.114.212.0/22
103.114.236.0/21
103.115.16.0/22
103.115.40.0/20
103.115.51.0/20
103.115.61.0/20
103.115.92.0/22
103.115.120.0/22
103.115.148.0/22
103.115.248.0/22
103.116.40.0/22
103.116.64.0/22
103.116.76.0/22
103.116.92.0/22
103.116.120.0/22
103.116.128.0/21
103.116.148.0/22
103.116.184.0/22
103.116.206.0/23
103.116.220.0/20
103.117.16.0/22
103.117.72.0/22
103.117.88.0/22
103.117.188.0/22
103.117.220.0/22
103.118.36.0/22
103.118.52.0/19
103.118.88.0/22
103.118.173.0/24
103.118.192.0/22
103.118.196.0/19
103.118.240.0/20
103.119.0.0/22
103.119.12.0/21
103.119.28.0/22
103.119.115.0/24
103.119.133.0/24
103.119.156.0/22
103.119.180.0/22
103.119.200.0/22
103.119.224.0/22
103.120.52.0/22
103.120.72.0/22
103.120.88.0/22
103.120.96.0/21
103.120.140.0/22
103.120.196.0/22
103.120.224.0/22
103.121.52.0/22
103.121.92.0/22
103.121.160.0/21
103.121.250.0/24
103.121.252.0/22
103.122.48.0/22
103.122.192.0/22
103.122.240.0/22
103.123.4.0/22
103.123.56.0/22
103.123.88.0/21
103.123.116.0/22
103.123.176.0/22
103.123.200.0/20
103.124.24.0/22
103.124.48.0/22
103.124.64.0/22
103.124.212.0/21
103.125.20.0/22
103.125.44.0/22
103.125.132.0/22
103.125.164.0/22
103.125.196.0/22
103.125.236.0/22
103.125.248.0/24
103.125.250.0/23
103.126.0.0/22
103.126.16.0/22
103.126.44.0/22
103.126.100.0/22
103.126.124.0/20
103.126.210.0/24
103.129.52.0/22
103.130.132.0/22
103.130.152.0/24
103.130.160.0/22
103.130.228.0/22
103.131.20.0/22
103.131.36.0/22
103.131.152.0/22
103.131.168.0/22
103.131.224.0/21
103.131.240.0/22
103.132.60.0/19
103.132.104.0/19
103.132.160.0/21
103.132.188.0/22
103.132.208.0/21
103.133.12.0/22
103.133.40.0/22
103.133.128.0/22
103.133.136.0/23
103.133.232.0/22
103.134.12.0/24
103.134.196.0/22
103.135.80.0/22
103.135.124.0/22
103.135.148.0/22
103.135.156.0/20
103.135.176.0/22
103.135.184.0/22
103.135.192.0/21
103.135.236.0/21
103.136.128.0/22
103.136.232.0/22
103.137.58.0/22
103.137.76.0/22
103.137.136.0/23
103.137.149.0/24
103.137.180.0/22
103.137.236.0/22
103.138.2.0/23
103.138.12.0/23
103.138.134.0/23
103.138.156.0/23
103.138.208.0/23
103.138.220.0/23
103.138.246.0/24
103.138.248.0/23
103.139.3.0/24
103.139.22.0/23
103.139.92.0/23
103.139.113.0/24
103.139.134.0/22
103.139.172.0/23
103.139.204.0/23
103.139.212.0/23
103.140.14.0/23
103.140.70.0/23
103.140.140.0/23
103.140.144.0/23
103.140.152.0/23
103.140.192.0/23
103.140.228.0/23
103.141.10.0/23
103.141.58.0/23
103.141.128.0/23
103.141.186.0/23
103.141.242.0/23
103.142.28.0/23
103.142.58.0/23
103.142.82.0/23
103.142.96.0/23
103.142.102.0/23
103.142.122.0/23
103.142.128.0/23
103.142.154.0/22
103.142.172.0/23
103.142.180.0/23
103.142.186.0/23
103.142.190.0/23
103.142.220.0/23
103.142.230.0/24
103.142.234.0/23
103.142.238.0/23
103.143.16.0/22
103.143.31.0/24
103.143.74.0/23
103.143.124.0/23
103.143.132.0/22
103.143.174.0/23
103.143.228.0/23
103.144.52.0/23
103.144.66.0/23
103.144.70.0/22
103.144.108.0/23
103.144.136.0/23
103.144.148.0/23
103.144.158.0/23
103.144.240.0/23
103.145.38.0/21
103.145.80.0/23
103.145.86.0/24
103.145.92.0/22
103.145.98.0/23
103.145.107.0/24
103.145.122.0/23
103.145.188.0/22
103.146.72.0/23
103.146.88.0/23
103.146.91.0/24
103.146.124.0/22
103.146.138.0/23
103.146.230.0/23
103.146.236.0/23
103.146.252.0/23
103.147.12.0/23
103.147.124.0/23
103.147.206.0/23
103.148.174.0/23
103.149.6.0/23
103.149.17.0/24
103.149.44.0/23
103.149.110.0/23
103.149.156.0/23
103.149.181.0/24
103.149.210.0/23
103.149.214.0/23
103.149.220.0/23
103.149.242.0/21
103.150.24.0/23
103.150.66.0/23
103.150.72.0/23
103.150.122.0/23
103.150.126.0/21
103.150.146.0/23
103.150.164.0/23
103.150.172.0/24
103.150.200.0/23
103.150.210.0/23
103.150.216.0/23
103.150.244.0/23
103.151.4.0/23
103.151.44.0/23
103.151.142.0/23
103.151.148.0/23
103.151.158.0/23
103.151.178.0/23
103.152.24.0/23
103.152.28.0/22
103.152.35.0/24
103.152.56.0/23
103.152.76.0/23
103.152.120.0/22
103.152.152.0/23
103.152.168.0/23
103.152.186.0/23
103.152.190.0/22
103.152.200.0/23
103.152.208.0/22
103.152.224.0/23
103.152.246.0/23
103.152.250.0/23
103.153.4.0/23
103.153.36.0/23
103.153.100.0/23
103.153.114.0/23
103.153.122.0/23
103.153.128.0/23
103.153.132.0/23
103.153.138.0/23
103.153.146.0/23
103.153.160.0/23
103.154.18.0/23
103.154.30.0/22
103.154.40.0/23
103.154.66.0/23
103.154.162.0/22
103.154.168.0/23
103.155.14.0/23
103.155.34.0/23
103.155.48.0/23
103.155.76.0/23
103.155.100.0/23
103.155.110.0/23
103.155.120.0/23
103.155.214.0/23
103.155.248.0/23
103.156.28.0/23
103.156.68.0/23
103.156.78.0/23
103.156.104.0/23
103.156.158.0/23
103.156.174.0/23
103.156.186.0/23
103.156.228.0/23
103.157.30.0/23
103.157.174.0/23
103.157.212.0/23
103.157.234.0/23
103.157.254.0/22
103.158.8.0/23
103.158.16.0/23
103.158.200.0/23
103.158.224.0/23
103.159.81.0/24
103.159.122.0/22
103.159.134.0/23
103.159.142.0/23
103.160.32.0/22
103.160.112.0/22
103.160.244.0/23
103.160.254.0/23
103.161.14.0/23
103.161.102.0/23
103.161.138.0/23
103.161.208.0/23
103.161.220.0/23
103.161.254.0/23
103.162.10.0/23
103.162.32.0/23
103.162.116.0/23
103.163.28.0/23
103.163.32.0/23
103.163.46.0/23
103.163.74.0/23
103.163.180.0/23
103.164.4.0/23
103.164.32.0/23
103.164.40.0/22
103.164.64.0/23
103.164.76.0/23
103.164.178.0/23
103.165.44.0/23
103.165.52.0/23
103.165.82.0/23
103.165.110.0/23
103.166.20.0/23
103.166.50.0/21
103.166.84.0/23
103.166.138.0/23
103.166.242.0/23
103.166.247.0/24
103.167.0.0/23
103.167.36.0/23
103.168.98.0/23
103.168.170.0/23
103.169.50.0/23
103.169.62.0/23
103.169.108.0/23
103.169.162.0/23
103.169.202.0/23
103.170.4.0/23
103.170.134.0/23
103.170.210.0/22
103.171.32.0/23
103.171.166.0/23
103.171.214.0/23
103.172.32.0/23
103.172.160.0/23
103.172.191.0/24
103.173.102.0/23
103.173.182.0/22
103.174.94.0/23
103.175.114.0/23
103.175.118.0/23
103.176.52.0/23
103.176.222.0/23
103.176.244.0/23
103.177.28.0/23
103.177.70.0/23
103.178.56.0/23
103.178.240.0/23
103.179.76.0/22
103.180.226.0/23
103.181.165.0/24
103.181.234.0/23
103.183.26.0/23
103.183.66.0/23
103.183.122.0/22
103.184.44.0/22
103.184.60.0/23
103.185.78.0/22
103.186.4.0/23
103.186.108.0/23
103.186.136.0/23
103.186.158.0/23
103.186.228.0/23
103.189.92.0/23
103.189.140.0/23
103.189.152.0/22
103.190.20.0/23
103.190.71.0/24
103.190.104.0/23
103.190.116.0/22
103.190.122.0/23
103.191.102.0/23
103.191.242.0/23
103.192.0.0/19
103.192.48.0/20
103.192.84.0/19
103.192.128.0/19
103.192.164.0/22
103.192.188.0/22
103.192.208.0/20
103.192.252.0/22
103.193.40.0/21
103.193.120.0/22
103.193.140.0/22
103.193.160.0/22
103.193.188.0/21
103.193.212.0/19
103.194.16.0/22
103.195.104.0/22
103.195.112.0/22
103.195.148.0/21
103.195.160.0/22
103.196.64.0/22
103.196.72.0/22
103.196.88.0/20
103.196.168.0/22
103.196.204.0/22
103.197.180.0/22
103.197.228.0/22
103.198.20.0/22
103.198.60.0/21
103.198.72.0/22
103.198.124.0/22
103.198.156.0/22
103.198.180.0/22
103.198.196.0/22
103.198.216.0/19
103.198.241.0/24
103.198.243.0/21
103.199.164.0/22
103.199.196.0/22
103.199.228.0/22
103.199.248.0/21
103.200.52.0/22
103.200.64.0/21
103.200.136.0/18
103.200.220.0/18
103.201.28.0/18
103.201.76.0/18
103.201.152.0/16
103.202.56.0/17
103.202.152.0/18
103.202.212.0/22
103.202.228.0/22
103.202.236.0/18
103.203.56.0/24
103.203.58.0/24
103.203.96.0/18
103.203.140.0/22
103.203.164.0/21
103.203.192.0/22
103.203.200.0/22
103.203.212.0/21
103.204.24.0/22
103.204.72.0/22
103.204.88.0/22
103.204.112.0/22
103.204.136.0/19
103.204.196.0/22
103.204.212.0/21
103.204.232.0/21
103.205.4.0/22
103.205.40.0/21
103.205.52.0/22
103.205.108.0/22
103.205.116.0/22
103.205.121.0/22
103.205.136.0/22
103.205.158.0/24
103.205.162.0/24
103.205.188.0/20
103.205.236.0/22
103.205.248.0/20
103.206.44.0/22
103.206.148.0/22
103.207.49.0/22
103.207.104.0/22
103.207.184.0/19
103.207.220.0/22
103.207.228.0/21
103.208.12.0/21
103.208.28.0/22
103.208.40.0/20
103.209.112.0/22
103.209.136.0/22
103.209.200.0/22
103.209.208.0/22
103.209.216.0/22
103.210.96.0/22
103.210.156.0/22
103.210.162.0/19
103.210.216.0/22
103.211.44.0/22
103.211.96.0/22
103.211.156.0/22
103.211.165.0/22
103.211.220.0/21
103.211.248.0/22
103.212.0.0/20
103.212.44.0/21
103.212.84.0/22
103.212.100.0/22
103.212.108.0/22
103.212.148.0/22
103.212.164.0/22
103.212.196.0/21
103.212.228.0/22
103.212.252.0/22
103.213.40.0/18
103.213.132.0/18
103.214.48.0/22
103.214.84.0/22
103.214.212.0/22
103.214.240.0/21
103.215.28.0/20
103.215.44.0/21
103.215.100.0/22
103.215.108.0/22
103.215.116.0/21
103.215.140.0/22
103.216.4.0/18
103.216.64.0/22
103.216.108.0/22
103.216.136.0/22
103.216.152.0/22
103.216.224.0/21
103.216.240.0/17
103.217.168.0/22
103.217.180.0/19
103.218.8.0/20
103.218.28.0/17
103.218.192.0/19
103.219.24.0/20
103.219.64.0/22
103.219.84.0/19
103.219.176.0/22
103.219.184.0/22
103.220.48.0/19
103.220.92.0/19
103.220.116.0/18
103.220.160.0/18
103.220.240.0/17
103.221.88.0/17
103.222.0.0/19
103.222.24.0/16
103.222.240.0/21
103.223.16.0/17
103.223.124.0/20
103.223.140.0/18
103.223.188.0/17
103.224.40.0/21
103.224.60.0/22
103.224.80.0/22
103.224.220.0/20
103.226.16.0/22
103.226.40.0/22
103.226.56.0/21
103.226.80.0/22
103.226.132.0/22
103.226.156.0/22
103.226.180.0/22
103.226.196.0/22
103.227.48.0/22
103.227.72.0/20
103.227.100.0/22
103.227.120.0/22
103.227.132.0/21
103.227.196.0/22
103.227.204.0/22
103.227.212.0/22
103.227.228.0/22
103.228.12.0/22
103.228.88.0/22
103.228.136.0/22
103.228.160.0/22
103.228.176.0/22
103.228.204.0/21
103.228.228.0/21
103.229.20.0/22
103.229.60.0/22
103.229.136.0/22
103.229.148.0/22
103.229.172.0/22
103.229.212.0/21
103.229.220.0/22
103.229.228.0/22
103.229.236.0/21
103.230.0.0/22
103.230.28.0/22
103.230.44.0/22
103.230.96.0/22
103.230.196.0/20
103.230.212.0/22
103.230.236.0/22
103.231.16.0/21
103.231.64.0/21
103.231.144.0/22
103.231.180.0/21
103.231.244.0/22
103.232.4.0/22
103.232.16.0/24
103.232.144.0/22
103.232.188.0/22
103.232.212.0/23
103.233.4.0/22
103.233.44.0/22
103.233.52.0/22
103.233.104.0/22
103.233.128.0/22
103.233.136.0/22
103.233.162.0/23
103.233.228.0/22
103.234.0.0/22
103.234.20.0/22
103.234.56.0/22
103.234.128.0/22
103.234.172.0/22
103.234.180.0/22
103.234.244.0/22
103.235.48.0/22
103.235.56.0/21
103.235.80.0/21
103.235.128.0/19
103.235.184.0/22
103.235.192.0/22
103.235.200.0/22
103.235.220.0/16
103.236.120.0/22
103.236.184.0/22
103.236.220.0/22
103.236.232.0/22
103.236.240.0/19
103.237.24.0/21
103.237.68.0/22
103.237.88.0/22
103.237.152.0/22
103.237.176.0/17
103.238.16.0/18
103.238.88.0/20
103.238.132.0/22
103.238.140.0/21
103.238.160.0/19
103.238.196.0/22
103.238.204.0/22
103.238.252.0/21
103.239.44.0/22
103.239.68.0/22
103.239.152.0/21
103.239.176.0/20
103.239.192.0/21
103.239.204.0/21
103.239.224.0/22
103.239.244.0/22
103.240.16.0/22
103.240.36.0/22
103.240.72.0/22
103.240.84.0/22
103.240.124.0/22
103.240.172.0/22
103.240.188.0/22
103.240.244.0/22
103.241.12.0/22
103.241.92.0/21
103.241.160.0/22
103.241.184.0/21
103.241.220.0/22
103.242.64.0/22
103.242.128.0/23
103.242.131.0/21
103.242.160.0/22
103.242.168.0/20
103.242.200.0/22
103.242.212.0/22
103.242.220.0/22
103.242.240.0/22
103.243.136.0/22
103.243.252.0/22
103.244.16.0/22
103.244.58.0/19
103.244.164.0/22
103.244.232.0/22
103.244.252.0/22
103.245.23.0/24
103.245.52.0/22
103.245.60.0/22
103.245.80.0/22
103.245.124.0/21
103.246.8.0/21
103.246.120.0/21
103.246.132.0/22
103.246.152.0/21
103.247.168.0/20
103.247.200.0/22
103.247.212.0/22
103.248.64.0/22
103.248.100.0/22
103.248.124.0/22
103.248.152.0/22
103.248.168.0/22
103.248.192.0/22
103.248.212.0/22
103.248.224.0/22
103.249.8.0/21
103.249.52.0/22
103.249.128.0/22
103.249.136.0/22
103.249.144.0/22
103.249.164.0/20
103.249.188.0/21
103.249.244.0/22
103.249.252.0/22
103.250.32.0/22
103.250.104.0/22
103.250.124.0/22
103.250.180.0/22
103.250.192.0/22
103.250.216.0/22
103.250.224.0/22
103.250.236.0/22
103.250.248.0/21
103.251.32.0/22
103.251.84.0/22
103.251.96.0/22
103.251.124.0/21
103.251.160.0/22
103.251.192.0/22
103.251.204.0/22
103.251.240.0/22
103.252.28.0/22
103.252.36.0/22
103.252.64.0/22
103.252.96.0/22
103.252.104.0/22
103.252.172.0/22
103.252.204.0/21
103.252.232.0/22
103.252.248.0/22
103.253.4.0/22
103.253.60.0/22
103.253.204.0/22
103.253.220.0/21
103.253.232.0/22
103.254.8.0/22
103.254.20.0/22
103.254.64.0/21
103.254.76.0/22
103.254.112.0/22
103.254.176.0/22
103.254.188.0/22
103.254.196.0/24
103.255.68.0/22
103.255.88.0/21
103.255.136.0/21
103.255.184.0/22
103.255.200.0/22
103.255.212.0/22
103.255.228.0/22
104.44.213.0/24
104.207.35.0/24
106.0.0.0/24
106.0.2.0/19
106.0.44.0/22
106.0.64.0/18
106.2.0.0/13
106.11.0.0/10
106.52.0.0/12
106.74.0.0/15
106.80.0.0/12
106.108.0.0/11
106.224.0.0/12
107.176.0.0/15
109.244.0.0/16
110.6.0.0/15
110.16.0.0/14
110.34.40.0/21
110.40.0.0/14
110.44.12.0/22
110.44.144.0/20
110.48.0.0/16
110.51.0.0/14
110.56.0.0/12
110.72.0.0/15
110.75.0.0/16
110.75.199.0/21
110.75.206.0/21
110.75.213.0/17
110.76.24.0/18
110.76.132.0/22
110.76.156.0/22
110.76.184.0/22
110.76.192.0/16
110.80.0.0/12
110.92.68.0/22
110.93.32.0/19
110.94.0.0/10
110.152.0.0/13
110.165.32.0/19
110.166.0.0/15
110.172.192.0/17
110.173.64.0/18
110.173.192.0/19
110.176.0.0/10
110.228.0.0/14
110.232.32.0/19
110.236.0.0/15
110.240.0.0/10
111.30.190.0/16
111.31.188.0/10
111.66.0.0/16
111.67.192.0/20
111.68.64.0/19
111.72.0.0/13
111.85.0.0/16
111.91.192.0/19
111.92.248.0/21
111.112.0.0/13
111.118.200.0/21
111.119.64.0/17
111.120.0.0/13
111.126.0.0/10
111.170.0.0/16
111.172.0.0/12
111.186.0.0/15
111.192.0.0/11
111.221.28.0/24
111.221.128.0/15
111.223.4.0/20
111.223.240.0/22
111.223.248.0/22
111.224.0.0/13
111.235.96.0/19
111.235.156.0/18
112.0.0.0/11
112.31.188.0/16
112.32.188.0/10
112.73.0.0/14
112.80.0.0/11
112.109.128.0/17
112.111.0.0/13
112.122.0.0/12
112.137.48.0/21
112.192.0.0/14
112.224.0.0/10
113.11.192.0/19
113.12.0.0/13
113.21.232.0/21
113.24.0.0/14
113.31.0.0/16
113.44.0.0/13
113.52.160.0/19
113.52.228.0/22
113.54.0.0/13
113.59.224.0/22
113.62.0.0/9
113.130.96.0/19
113.132.0.0/12
113.194.0.0/15
113.197.100.0/21
113.200.0.0/14
113.204.0.0/14
113.208.96.0/15
113.212.0.0/18
113.212.100.0/22
113.212.184.0/21
113.213.0.0/17
113.214.0.0/15
113.218.0.0/10
114.28.0.0/16
114.31.64.0/21
114.54.0.0/15
114.60.0.0/13
114.66.160.0/14
114.79.64.0/18
114.80.0.0/11
114.110.0.0/20
114.110.64.0/18
114.111.0.0/19
114.111.160.0/19
114.112.0.0/19
114.112.22.0/17
114.112.131.0/17
114.112.227.0/21
114.112.234.0/23
114.113.0.0/16
114.113.195.0/18
114.113.255.0/13
114.119.192.0/18
114.132.0.0/16
114.135.0.0/16
114.138.0.0/15
114.141.64.0/21
114.141.80.0/21
114.141.128.0/18
114.142.136.0/21
114.196.0.0/15
114.198.248.0/21
114.208.0.0/10
115.24.0.0/13
115.31.64.0/20
115.32.0.0/14
115.42.56.0/22
115.44.0.0/11
115.69.64.0/20
115.84.0.0/18
115.84.192.0/19
115.85.192.0/18
115.100.0.0/13
115.120.0.0/14
115.124.16.0/20
115.148.0.0/12
115.166.64.0/19
115.168.0.0/13
115.180.0.0/14
115.187.0.0/20
115.190.0.0/10
116.0.8.0/21
116.0.24.0/21
116.1.0.0/12
116.13.0.0/16
116.16.0.0/12
116.50.0.0/20
116.52.0.0/13
116.58.128.0/20
116.58.208.0/20
116.60.0.0/14
116.66.0.0/17
116.68.136.0/21
116.68.176.0/21
116.69.0.0/15
116.76.0.0/14
116.85.0.0/16
116.89.144.0/20
116.89.240.0/22
116.90.80.0/20
116.90.184.0/21
116.92.255.0/24
116.95.0.0/16
116.112.0.0/13
116.128.0.0/9
116.193.16.0/18
116.193.164.0/22
116.193.176.0/21
116.194.0.0/14
116.197.160.0/21
116.197.180.0/24
116.198.0.0/15
116.204.0.0/17
116.204.132.0/22
116.204.216.0/22
116.204.232.0/22
116.205.0.0/16
116.207.0.0/13
116.212.160.0/20
116.213.44.0/22
116.213.64.0/16
116.214.32.0/18
116.214.110.0/23
116.214.128.0/13
116.224.0.0/12
116.242.0.0/13
116.251.64.0/18
116.252.0.0/15
116.254.104.0/21
116.254.128.0/17
116.255.128.0/17
117.8.0.0/13
117.21.0.0/11
117.48.0.0/14
117.51.128.0/17
117.53.48.0/20
117.53.176.0/20
117.57.0.0/15
117.59.0.0/12
117.74.64.0/19
117.74.128.0/11
117.100.0.0/15
117.103.16.0/20
117.103.40.0/21
117.103.72.0/21
117.103.128.0/20
117.104.168.0/21
117.106.0.0/15
117.112.0.0/13
117.120.64.0/15
117.122.128.0/17
117.124.0.0/9
118.24.0.0/14
118.26.40.0/18
118.26.112.0/19
118.26.133.0/20
118.26.160.0/20
118.26.188.0/17
118.28.0.0/14
118.64.0.0/14
118.67.112.0/20
118.72.0.0/12
118.84.0.0/15
118.88.32.0/15
118.91.240.0/20
118.102.16.0/19
118.103.164.0/20
118.112.0.0/12
118.127.128.0/19
118.132.0.0/14
118.144.0.0/14
118.178.0.0/16
118.180.0.0/13
118.184.74.0/24
118.184.76.0/18
118.184.116.0/16
118.186.0.0/14
118.188.160.0/17
118.190.0.0/15
118.191.16.0/24
118.191.18.0/21
118.191.64.0/19
118.191.128.0/19
118.191.176.0/18
118.191.216.0/22
118.191.223.0/23
118.191.240.0/15
118.193.48.0/21
118.193.96.0/15
118.194.240.0/21
118.195.0.0/13
118.202.0.0/13
118.212.0.0/15
118.215.192.0/18
118.224.0.0/13
118.239.0.0/16
118.242.0.0/16
118.244.0.0/12
119.2.128.0/13
119.8.250.0/24
119.10.0.0/17
119.15.136.0/21
119.16.0.0/16
119.18.192.0/19
119.18.224.0/13
119.27.64.0/16
119.29.164.0/24
119.30.48.0/20
119.31.192.0/19
119.32.0.0/13
119.38.212.0/23
119.38.215.0/21
119.38.222.0/15
119.40.128.0/15
119.42.128.0/20
119.42.224.0/19
119.44.0.0/15
119.48.0.0/13
119.57.0.0/15
119.59.128.0/14
119.63.32.0/19
119.75.208.0/20
119.78.0.0/14
119.82.208.0/20
119.84.0.0/13
119.96.0.0/13
119.108.0.0/15
119.112.0.0/10
119.148.160.0/19
119.151.192.0/18
119.160.200.0/21
119.161.120.0/13
119.176.0.0/12
119.232.0.0/15
119.235.128.0/18
119.248.0.0/14
119.252.96.0/21
119.252.240.0/11
120.24.0.0/14
120.30.0.0/11
120.52.0.0/14
120.64.0.0/13
120.72.32.0/19
120.72.128.0/17
120.76.0.0/12
120.88.8.0/21
120.90.0.0/14
120.94.0.0/15
120.128.0.0/13
120.136.16.0/21
120.136.128.0/18
120.137.0.0/17
120.143.128.0/19
120.192.0.0/10
121.0.8.0/20
121.0.20.0/22
121.0.24.0/21
121.4.0.0/15
121.8.0.0/10
121.46.0.0/18
121.46.76.0/22
121.46.128.0/14
121.50.8.0/21
121.51.0.0/16
121.52.160.0/19
121.52.208.0/18
121.54.176.0/21
121.55.0.0/18
121.56.0.0/14
121.58.136.0/19
121.59.0.0/19
121.59.18.0/20
121.60.0.0/14
121.68.0.0/14
121.76.0.0/15
121.79.128.0/18
121.89.0.0/16
121.91.104.0/21
121.91.176.0/20
121.100.128.0/16
121.101.208.0/20
121.192.0.0/13
121.200.192.0/21
121.201.0.0/16
121.204.0.0/14
121.224.0.0/12
121.248.0.0/14
121.255.0.0/16
122.0.64.0/16
122.4.0.0/13
122.8.28.0/22
122.8.79.0/19
122.8.192.0/15
122.10.128.0/21
122.10.136.0/23
122.10.164.0/20
122.10.192.0/22
122.10.200.0/19
122.10.228.0/20
122.11.0.0/17
122.12.0.0/14
122.48.0.0/15
122.51.0.0/16
122.64.0.0/10
122.102.0.0/20
122.102.64.0/19
122.112.0.0/14
122.115.80.0/16
122.119.0.0/16
122.128.100.0/22
122.128.120.0/21
122.136.0.0/13
122.144.128.0/17
122.152.192.0/18
122.156.0.0/14
122.188.0.0/13
122.198.0.0/16
122.200.40.0/21
122.200.64.0/18
122.201.48.0/20
122.204.0.0/14
122.224.0.0/11
122.248.24.0/21
122.248.48.0/20
122.255.64.0/21
123.0.128.0/18
123.4.0.0/12
123.49.128.0/17
123.50.160.0/19
123.52.0.0/13
123.58.224.0/13
123.64.0.0/10
123.99.128.0/16
123.101.0.0/16
123.103.0.0/17
123.108.128.0/20
123.108.208.0/20
123.112.0.0/11
123.136.80.0/20
123.137.0.0/14
123.144.0.0/11
123.176.60.0/22
123.176.80.0/20
123.177.0.0/12
123.196.0.0/15
123.199.128.0/17
123.206.0.0/15
123.232.0.0/14
123.242.0.0/17
123.242.192.0/21
123.244.0.0/14
123.249.0.0/17
123.253.240.0/22
123.254.96.0/21
124.6.64.0/18
124.14.0.0/14
124.20.0.0/14
124.28.192.0/16
124.31.0.0/16
124.40.112.0/17
124.40.240.0/22
124.42.0.0/16
124.47.0.0/18
124.64.0.0/14
124.67.0.0/12
124.88.0.0/13
124.108.8.0/21
124.108.40.0/21
124.109.96.0/21
124.112.0.0/13
124.126.0.0/12
124.147.128.0/17
124.150.137.0/24
124.151.0.0/15
124.160.0.0/13
124.172.0.0/14
124.192.0.0/15
124.196.0.0/16
124.200.0.0/13
124.220.0.0/11
124.242.0.0/16
124.243.192.0/18
124.248.0.0/17
124.249.0.0/14
124.254.0.0/18
125.31.192.0/11
125.58.128.0/17
125.61.128.0/16
125.64.0.0/10
125.104.0.0/11
125.169.0.0/16
125.171.0.0/16
125.208.0.0/18
125.210.0.0/15
125.213.0.0/17
125.214.96.0/19
125.215.0.0/18
125.216.0.0/13
125.254.128.0/17
128.108.0.0/16
129.28.0.0/16
129.204.0.0/16
129.211.0.0/16
131.228.96.0/24
132.232.0.0/16
134.175.0.0/16
137.59.59.0/24
137.59.88.0/22
137.201.210.0/23
139.5.56.0/21
139.5.80.0/22
139.5.92.0/22
139.5.128.0/22
139.5.160.0/22
139.5.192.0/22
139.5.204.0/22
139.5.212.0/22
139.5.244.0/22
139.9.0.0/16
139.74.130.0/24
139.129.0.0/16
139.148.0.0/16
139.155.0.0/16
139.159.0.0/16
139.170.0.0/16
139.176.0.0/16
139.183.0.0/16
139.186.0.0/16
139.189.0.0/16
139.196.0.0/11
139.217.0.0/16
139.219.0.0/14
139.224.0.0/16
139.226.0.0/15
140.75.0.0/16
140.99.185.0/24
140.143.0.0/16
140.179.0.0/16
140.205.0.0/14
140.210.0.0/16
140.224.0.0/16
140.237.0.0/16
140.240.0.0/16
140.242.216.0/24
140.242.223.0/23
140.243.0.0/16
140.246.0.0/16
140.249.0.0/15
140.255.0.0/16
141.11.98.0/24
141.98.86.0/24
142.70.0.0/16
142.86.0.0/16
143.29.46.0/23
143.64.0.0/16
144.0.0.0/16
144.7.0.0/16
144.12.0.0/16
144.48.64.0/22
144.48.88.0/22
144.48.156.0/22
144.48.180.0/21
144.48.204.0/20
144.48.220.0/22
144.48.252.0/22
144.52.0.0/16
144.123.0.0/16
144.255.0.0/16
146.56.192.0/18
146.196.56.0/22
146.196.68.0/21
146.196.92.0/22
146.196.112.0/21
146.196.124.0/22
147.243.103.0/24
148.70.0.0/16
149.41.0.0/16
150.0.0.0/16
150.115.0.0/16
150.121.0.0/15
150.129.136.0/22
150.129.192.0/22
150.129.252.0/22
150.138.0.0/15
150.158.0.0/16
150.222.88.0/23
150.223.0.0/16
150.242.0.0/20
150.242.28.0/22
150.242.44.0/20
150.242.76.0/21
150.242.92.0/21
150.242.112.0/20
150.242.152.0/19
150.242.184.0/20
150.242.212.0/24
150.242.224.0/22
150.242.232.0/19
150.248.0.0/16
150.255.0.0/16
152.104.128.0/17
152.136.0.0/16
153.0.0.0/16
153.3.0.0/19
153.3.40.0/16
153.34.0.0/14
153.99.0.0/16
153.101.0.0/16
153.118.0.0/15
154.8.128.0/17
154.18.174.0/24
154.19.168.0/24
154.19.171.0/24
154.19.175.0/24
154.72.40.0/24
154.83.28.0/24
155.113.128.0/23
155.113.144.0/23
155.126.176.0/23
155.235.190.0/24
156.154.180.0/24
157.0.0.0/16
157.18.0.0/16
157.61.0.0/16
157.119.8.0/20
157.119.28.0/22
157.119.132.0/18
157.119.172.0/22
157.119.192.0/21
157.119.240.0/22
157.119.252.0/22
157.122.0.0/16
157.133.186.0/23
157.133.192.0/21
157.148.0.0/16
157.156.0.0/16
157.255.0.0/16
158.50.48.0/23
158.60.0.0/16
158.79.0.0/24
158.79.2.0/16
159.27.0.0/16
159.75.0.0/16
159.153.120.0/22
159.221.232.0/24
159.226.0.0/16
160.19.208.0/20
160.20.48.0/22
160.202.60.0/22
160.202.148.0/21
160.202.168.0/22
160.202.212.0/18
160.238.64.0/22
161.120.0.0/16
161.123.70.0/23
161.123.94.0/23
161.189.0.0/16
161.207.0.0/16
162.14.0.0/16
162.105.0.0/16
163.0.0.0/16
163.47.4.0/22
163.53.0.0/20
163.53.36.0/19
163.53.88.0/18
163.53.160.0/20
163.53.188.0/22
163.53.220.0/22
163.53.240.0/22
163.125.0.0/16
163.142.0.0/16
163.177.0.0/16
163.179.0.0/16
163.197.6.0/24
163.204.0.0/16
163.228.0.0/16
166.111.0.0/16
167.139.0.0/16
167.167.208.0/24
167.167.210.0/22
167.189.0.0/16
167.220.244.0/22
168.160.0.0/16
170.33.1.0/22
170.179.0.0/16
171.8.0.0/13
171.34.0.0/12
171.80.0.0/12
171.104.0.0/11
171.208.0.0/12
172.81.102.0/24
172.81.192.0/18
172.225.58.0/24
174.136.237.0/24
174.136.239.0/24
175.0.0.0/11
175.30.0.0/15
175.42.0.0/14
175.46.0.0/10
175.102.0.0/16
175.106.128.0/17
175.111.144.0/19
175.111.184.0/22
175.146.0.0/12
175.158.96.0/22
175.160.0.0/12
175.176.156.0/22
175.176.176.0/22
175.176.188.0/22
175.178.0.0/16
175.184.128.0/18
175.185.0.0/13
176.56.38.0/24
180.76.0.0/14
180.84.0.0/14
180.88.0.0/14
180.94.56.0/21
180.94.96.0/20
180.94.120.0/21
180.95.128.0/10
180.129.128.0/15
180.136.0.0/13
180.148.16.0/21
180.148.152.0/21
180.148.216.0/18
180.149.128.0/19
180.150.160.0/19
180.152.0.0/11
180.178.112.0/21
180.178.192.0/18
180.184.0.0/13
180.189.148.0/22
180.200.252.0/14
180.208.0.0/15
180.210.212.0/22
180.210.224.0/19
180.212.0.0/15
180.222.224.0/15
180.233.0.0/17
180.233.144.0/22
180.235.64.0/19
180.235.112.0/22
182.16.144.0/21
182.16.192.0/19
182.18.0.0/17
182.23.184.0/21
182.23.200.0/21
182.32.0.0/12
182.48.96.0/19
182.49.0.0/15
182.50.112.0/20
182.51.0.0/16
182.54.0.0/17
182.54.244.0/22
182.61.0.0/16
182.80.0.0/12
182.96.0.0/10
182.157.0.0/16
182.160.64.0/19
182.161.66.0/24
182.174.0.0/15
182.200.0.0/13
182.207.163.0/17
182.236.128.0/17
182.237.24.0/21
182.238.0.0/15
182.240.0.0/13
182.254.0.0/16
182.255.60.0/22
183.0.0.0/9
183.78.160.0/21
183.78.180.0/22
183.81.172.0/22
183.81.180.0/22
183.84.0.0/15
183.91.128.0/22
183.91.136.0/19
183.92.0.0/14
183.128.0.0/10
183.172.0.0/14
183.182.0.0/19
183.182.21.0/20
183.182.81.0/24
183.184.0.0/9
185.9.38.0/24
185.68.244.0/23
185.88.103.0/24
185.95.100.0/22
185.175.100.0/24
185.175.103.0/24
185.175.224.0/23
185.203.36.0/22
185.241.211.0/24
185.242.244.0/22
188.65.16.0/22
188.131.128.0/17
188.241.80.0/24
192.55.46.0/24
192.55.68.0/22
192.102.204.0/23
192.124.154.0/24
192.137.31.0/24
192.140.128.0/20
192.140.156.0/18
192.144.128.0/17
193.17.120.0/22
193.112.0.0/16
194.138.136.0/24
194.138.202.0/23
194.138.245.0/24
194.156.15.0/24
198.11.148.0/24
198.11.190.0/23
198.145.146.0/24
198.175.100.0/22
199.3.210.0/24
199.21.15.0/24
199.48.182.0/24
199.53.45.0/23
199.65.192.0/21
202.0.100.0/23
202.0.122.0/23
202.3.128.0/23
202.4.128.0/19
202.4.252.0/22
202.5.208.0/20
202.6.6.0/23
202.6.66.0/23
202.6.72.0/23
202.6.87.0/22
202.6.92.0/23
202.6.103.0/24
202.6.108.0/24
202.6.110.0/23
202.6.114.0/24
202.6.176.0/20
202.8.0.0/24
202.8.2.0/22
202.8.12.0/24
202.8.24.0/24
202.8.77.0/24
202.8.120.0/22
202.8.128.0/19
202.8.192.0/20
202.9.32.0/24
202.9.34.0/23
202.9.48.0/23
202.9.51.0/22
202.9.57.0/22
202.10.64.0/20
202.10.112.0/20
202.12.1.0/23
202.12.17.0/23
202.12.72.0/24
202.12.84.0/23
202.12.96.0/24
202.12.98.0/23
202.12.106.0/24
202.12.111.0/24
202.12.116.0/24
202.14.64.0/23
202.14.69.0/24
202.14.73.0/22
202.14.78.0/23
202.14.88.0/24
202.14.97.0/24
202.14.104.0/23
202.14.108.0/23
202.14.111.0/24
202.14.114.0/23
202.14.118.0/23
202.14.124.0/23
202.14.127.0/24
202.14.129.0/24
202.14.135.0/23
202.14.149.0/24
202.14.151.0/24
202.14.157.0/22
202.14.169.0/21
202.14.184.0/23
202.14.208.0/23
202.14.213.0/24
202.14.219.0/23
202.14.222.0/23
202.14.225.0/22
202.14.231.0/24
202.14.235.0/21
202.14.246.0/24
202.14.251.0/24
202.20.66.0/24
202.20.79.0/24
202.20.87.0/22
202.20.94.0/23
202.20.114.0/24
202.20.117.0/24
202.20.120.0/24
202.20.125.0/22
202.21.48.0/20
202.21.131.0/23
202.21.141.0/23
202.21.147.0/23
202.21.150.0/21
202.21.156.0/24
202.21.212.0/24
202.22.248.0/21
202.27.12.0/24
202.27.14.0/24
202.27.136.0/23
202.36.226.0/24
202.38.0.0/22
202.38.8.0/21
202.38.48.0/17
202.38.140.0/22
202.38.146.0/23
202.38.149.0/21
202.38.158.0/22
202.38.164.0/21
202.38.176.0/23
202.38.184.0/17
202.40.4.0/23
202.40.7.0/24
202.40.15.0/24
202.40.135.0/23
202.40.140.0/24
202.40.143.0/22
202.40.150.0/24
202.40.155.0/23
202.40.158.0/23
202.40.162.0/24
202.41.8.0/23
202.41.11.0/22
202.41.128.0/24
202.41.130.0/23
202.41.142.0/24
202.41.152.0/21
202.41.192.0/24
202.41.196.0/21
202.41.240.0/20
202.43.76.0/22
202.43.144.0/20
202.44.16.0/20
202.44.48.0/22
202.44.67.0/24
202.44.74.0/24
202.44.97.0/24
202.44.129.0/24
202.44.132.0/23
202.44.146.0/23
202.45.0.0/22
202.45.15.0/19
202.46.16.0/22
202.46.20.0/23
202.46.32.0/21
202.46.41.0/19
202.46.128.0/24
202.46.224.0/20
202.47.82.0/23
202.47.96.0/20
202.47.126.0/24
202.47.128.0/24
202.47.130.0/23
202.52.33.0/23
202.52.47.0/24
202.52.143.0/24
202.53.140.0/24
202.53.143.0/24
202.55.30.0/23
202.57.192.0/20
202.57.212.0/21
202.57.240.0/19
202.58.112.0/22
202.59.0.0/23
202.59.212.0/22
202.59.236.0/24
202.59.240.0/24
202.60.48.0/21
202.60.96.0/21
202.60.112.0/20
202.60.132.0/19
202.61.68.0/22
202.61.76.0/22
202.61.88.0/22
202.61.123.0/24
202.61.127.0/24
202.62.112.0/22
202.62.248.0/21
202.62.255.0/24
202.63.80.0/20
202.63.160.0/19
202.63.248.0/22
202.63.253.0/24
202.65.0.0/20
202.65.96.0/20
202.66.168.0/22
202.67.0.0/22
202.69.4.0/22
202.69.16.0/20
202.70.0.0/19
202.70.96.0/20
202.70.192.0/20
202.71.32.0/20
202.72.40.0/21
202.72.80.0/20
202.72.112.0/20
202.73.128.0/22
202.73.240.0/20
202.74.8.0/21
202.74.36.0/24
202.74.42.0/24
202.74.52.0/24
202.74.80.0/20
202.74.254.0/23
202.75.208.0/20
202.75.252.0/22
202.76.247.0/24
202.76.252.0/22
202.77.80.0/21
202.77.92.0/22
202.78.8.0/21
202.79.224.0/21
202.79.248.0/22
202.80.192.0/20
202.81.0.0/22
202.81.176.0/20
202.83.252.0/19
202.84.22.0/24
202.84.24.0/21
202.85.208.0/20
202.86.249.0/24
202.86.252.0/22
202.87.80.0/20
202.88.32.0/22
202.89.8.0/21
202.89.96.0/22
202.89.108.0/22
202.89.119.0/24
202.89.232.0/21
202.90.0.0/22
202.90.16.0/20
202.90.37.0/24
202.90.96.0/19
202.90.193.0/24
202.90.196.0/24
202.90.205.0/24
202.90.224.0/20
202.91.0.0/22
202.91.96.0/20
202.91.128.0/22
202.91.176.0/20
202.91.224.0/18
202.92.8.0/21
202.92.48.0/20
202.92.252.0/21
202.93.252.0/22
202.94.1.0/24
202.94.74.0/24
202.94.81.0/24
202.94.92.0/22
202.95.240.0/21
202.95.252.0/15
202.97.128.0/16
202.98.24.0/12
202.111.235.0/21
202.111.244.0/12
202.122.32.0/21
202.122.64.0/19
202.122.112.0/19
202.122.132.0/24
202.123.96.0/20
202.123.116.0/21
202.124.16.0/20
202.125.107.0/24
202.125.109.0/24
202.125.112.0/20
202.125.176.0/20
202.127.0.0/21
202.127.12.0/19
202.127.40.0/19
202.127.112.0/18
202.127.192.0/19
202.127.212.0/18
202.129.208.0/24
202.130.0.0/19
202.130.39.0/24
202.130.224.0/19
202.131.16.0/21
202.131.48.0/20
202.131.208.0/20
202.133.32.0/20
202.134.58.0/24
202.134.128.0/20
202.134.208.0/20
202.136.48.0/20
202.136.208.0/19
202.136.248.0/22
202.137.231.0/24
202.140.140.0/19
202.141.160.0/19
202.142.16.0/20
202.143.4.0/22
202.143.16.0/19
202.143.56.0/21
202.143.100.0/21
202.146.160.0/20
202.146.186.0/24
202.146.188.0/22
202.146.196.0/20
202.147.144.0/20
202.148.32.0/20
202.148.64.0/18
202.149.32.0/19
202.149.160.0/19
202.149.224.0/19
202.150.16.0/19
202.150.56.0/22
202.150.192.0/20
202.150.224.0/18
202.151.33.0/24
202.151.128.0/19
202.152.176.0/20
202.153.0.0/22
202.153.7.0/24
202.153.48.0/20
202.157.192.0/19
202.158.160.0/19
202.158.242.0/24
202.160.140.0/22
202.160.156.0/22
202.160.176.0/20
202.162.67.0/24
202.162.75.0/24
202.164.0.0/20
202.164.96.0/19
202.165.176.0/20
202.165.208.0/20
202.165.239.0/22
202.165.243.0/24
202.165.245.0/24
202.165.251.0/21
202.166.224.0/19
202.168.80.0/22
202.168.128.0/20
202.168.160.0/19
202.170.128.0/19
202.170.216.0/18
202.171.216.0/21
202.171.232.0/24
202.171.235.0/24
202.172.0.0/22
202.172.7.0/24
202.173.0.0/22
202.173.6.0/24
202.173.8.0/21
202.173.112.0/22
202.173.224.0/19
202.174.64.0/20
202.174.124.0/22
202.176.224.0/19
202.179.160.0/20
202.179.240.0/20
202.180.128.0/19
202.180.208.0/21
202.181.8.0/22
202.181.28.0/22
202.181.112.0/20
202.182.32.0/20
202.182.192.0/19
202.189.0.0/18
202.189.80.0/20
202.189.184.0/21
202.191.0.0/24
202.191.68.0/19
202.192.0.0/12
203.0.4.0/22
203.0.10.0/23
203.0.18.0/24
203.0.24.0/24
203.0.42.0/23
203.0.45.0/22
203.0.81.0/22
203.0.90.0/23
203.0.96.0/23
203.0.104.0/21
203.0.114.0/23
203.0.122.0/24
203.0.128.0/24
203.0.130.0/21
203.0.137.0/24
203.0.142.0/24
203.0.144.0/24
203.0.146.0/24
203.0.148.0/24
203.0.150.0/22
203.0.177.0/24
203.0.224.0/24
203.1.4.0/22
203.1.18.0/24
203.1.26.0/23
203.1.65.0/22
203.1.70.0/23
203.1.76.0/23
203.1.90.0/24
203.1.97.0/21
203.1.108.0/24
203.1.253.0/23
203.2.64.0/21
203.2.73.0/24
203.2.112.0/21
203.2.126.0/23
203.2.140.0/24
203.2.150.0/24
203.2.152.0/21
203.2.160.0/21
203.2.180.0/23
203.2.196.0/23
203.2.209.0/24
203.2.214.0/23
203.2.226.0/23
203.2.229.0/24
203.2.236.0/23
203.3.68.0/24
203.3.72.0/23
203.3.75.0/24
203.3.80.0/21
203.3.96.0/22
203.3.105.0/24
203.3.112.0/20
203.3.123.0/24
203.3.135.0/24
203.3.139.0/24
203.3.143.0/24
203.4.132.0/22
203.4.151.0/21
203.4.174.0/23
203.4.180.0/24
203.4.186.0/24
203.4.205.0/24
203.4.208.0/22
203.4.227.0/24
203.4.230.0/23
203.5.4.0/23
203.5.7.0/22
203.5.11.0/24
203.5.21.0/23
203.5.44.0/24
203.5.46.0/23
203.5.52.0/21
203.5.60.0/23
203.5.114.0/23
203.5.118.0/24
203.5.120.0/24
203.5.172.0/24
203.5.180.0/22
203.5.185.0/23
203.5.188.0/22
203.5.195.0/24
203.5.214.0/23
203.5.218.0/23
203.6.131.0/24
203.6.136.0/24
203.6.138.0/23
203.6.142.0/24
203.6.150.0/23
203.6.157.0/24
203.6.159.0/24
203.6.224.0/20
203.6.248.0/23
203.7.129.0/24
203.7.138.0/23
203.7.147.0/24
203.7.150.0/23
203.7.158.0/24
203.7.192.0/23
203.7.200.0/24
203.8.0.0/24
203.8.8.0/24
203.8.23.0/24
203.8.70.0/24
203.8.82.0/24
203.8.86.0/23
203.8.91.0/24
203.8.110.0/23
203.8.115.0/24
203.8.166.0/23
203.8.169.0/24
203.8.173.0/24
203.8.184.0/24
203.8.186.0/23
203.8.190.0/22
203.8.197.0/22
203.8.203.0/24
203.8.209.0/21
203.8.217.0/24
203.8.220.0/24
203.9.32.0/24
203.9.36.0/23
203.9.57.0/24
203.9.63.0/24
203.9.65.0/24
203.9.70.0/22
203.9.75.0/22
203.9.96.0/21
203.9.108.0/24
203.9.158.0/24
203.10.34.0/24
203.10.56.0/24
203.10.74.0/23
203.10.84.0/21
203.10.95.0/24
203.10.125.0/24
203.11.70.0/24
203.11.76.0/22
203.11.82.0/24
203.11.84.0/22
203.11.100.0/22
203.11.109.0/24
203.11.117.0/24
203.11.122.0/24
203.11.126.0/24
203.11.136.0/22
203.11.141.0/22
203.11.180.0/22
203.11.208.0/22
203.12.16.0/24
203.12.19.0/24
203.12.24.0/24
203.12.57.0/24
203.12.65.0/23
203.12.70.0/23
203.12.87.0/24
203.12.91.0/24
203.12.100.0/23
203.12.103.0/24
203.12.114.0/24
203.12.118.0/24
203.12.130.0/24
203.12.137.0/24
203.12.196.0/22
203.12.211.0/24
203.12.219.0/24
203.12.226.0/24
203.12.240.0/22
203.13.18.0/24
203.13.24.0/24
203.13.44.0/23
203.13.88.0/23
203.13.92.0/22
203.13.145.0/24
203.13.173.0/24
203.13.224.0/23
203.13.227.0/24
203.13.233.0/24
203.14.24.0/22
203.14.33.0/24
203.14.56.0/24
203.14.61.0/23
203.14.104.0/24
203.14.114.0/23
203.14.118.0/24
203.14.162.0/24
203.14.192.0/24
203.14.194.0/23
203.14.214.0/24
203.14.231.0/24
203.14.246.0/24
203.15.0.0/20
203.15.20.0/22
203.15.87.0/22
203.15.105.0/24
203.15.112.0/21
203.15.130.0/23
203.15.149.0/24
203.15.151.0/24
203.15.156.0/22
203.15.174.0/24
203.15.227.0/24
203.15.232.0/20
203.15.246.0/24
203.16.10.0/24
203.16.12.0/23
203.16.16.0/21
203.16.27.0/24
203.16.38.0/24
203.16.49.0/22
203.16.58.0/24
203.16.63.0/24
203.16.133.0/24
203.16.161.0/23
203.16.186.0/23
203.16.228.0/24
203.16.238.0/24
203.16.240.0/24
203.16.245.0/24
203.17.2.0/24
203.17.18.0/24
203.17.28.0/24
203.17.39.0/24
203.17.56.0/24
203.17.74.0/23
203.17.88.0/23
203.17.136.0/24
203.17.164.0/24
203.17.187.0/24
203.17.190.0/23
203.17.231.0/24
203.17.233.0/24
203.17.248.0/23
203.17.255.0/24
203.18.2.0/22
203.18.7.0/24
203.18.31.0/24
203.18.37.0/24
203.18.48.0/23
203.18.52.0/24
203.18.72.0/22
203.18.80.0/23
203.18.87.0/24
203.18.100.0/23
203.18.105.0/24
203.18.107.0/24
203.18.110.0/24
203.18.129.0/24
203.18.131.0/22
203.18.144.0/24
203.18.153.0/24
203.18.199.0/24
203.18.208.0/24
203.18.211.0/24
203.18.215.0/24
203.19.1.0/24
203.19.18.0/24
203.19.24.0/24
203.19.30.0/24
203.19.41.0/24
203.19.44.0/22
203.19.58.0/24
203.19.60.0/23
203.19.64.0/24
203.19.68.0/24
203.19.72.0/24
203.19.101.0/24
203.19.111.0/24
203.19.131.0/24
203.19.133.0/24
203.19.144.0/24
203.19.147.0/24
203.19.149.0/24
203.19.156.0/24
203.19.176.0/24
203.19.178.0/23
203.19.208.0/24
203.19.228.0/22
203.19.233.0/24
203.19.242.0/24
203.19.248.0/23
203.19.255.0/24
203.20.17.0/24
203.20.40.0/23
203.20.44.0/24
203.20.48.0/24
203.20.61.0/24
203.20.65.0/24
203.20.84.0/23
203.20.89.0/24
203.20.106.0/23
203.20.115.0/24
203.20.117.0/22
203.20.122.0/24
203.20.126.0/23
203.20.135.0/24
203.20.150.0/24
203.20.230.0/24
203.20.232.0/24
203.20.236.0/24
203.21.0.0/22
203.21.8.0/24
203.21.10.0/24
203.21.18.0/24
203.21.33.0/23
203.21.41.0/24
203.21.44.0/24
203.21.68.0/24
203.21.82.0/24
203.21.96.0/22
203.21.124.0/24
203.21.136.0/23
203.21.145.0/24
203.21.206.0/24
203.22.24.0/24
203.22.28.0/23
203.22.31.0/24
203.22.68.0/24
203.22.76.0/24
203.22.78.0/24
203.22.84.0/24
203.22.87.0/24
203.22.92.0/22
203.22.99.0/24
203.22.106.0/24
203.22.122.0/23
203.22.131.0/24
203.22.163.0/24
203.22.166.0/24
203.22.170.0/24
203.22.194.0/24
203.22.242.0/23
203.22.245.0/23
203.22.252.0/23
203.23.0.0/24
203.23.47.0/24
203.23.61.0/22
203.23.73.0/24
203.23.85.0/24
203.23.92.0/22
203.23.98.0/24
203.23.107.0/24
203.23.112.0/24
203.23.130.0/24
203.23.140.0/23
203.23.172.0/24
203.23.182.0/24
203.23.186.0/23
203.23.192.0/24
203.23.197.0/23
203.23.204.0/22
203.23.224.0/24
203.23.226.0/21
203.23.249.0/24
203.23.251.0/24
203.24.13.0/24
203.24.18.0/24
203.24.27.0/24
203.24.43.0/24
203.24.56.0/24
203.24.58.0/24
203.24.67.0/24
203.24.74.0/24
203.24.79.0/22
203.24.84.0/22
203.24.90.0/24
203.24.111.0/23
203.24.116.0/24
203.24.122.0/23
203.24.145.0/24
203.24.152.0/23
203.24.157.0/24
203.24.161.0/24
203.24.167.0/24
203.24.186.0/23
203.24.199.0/24
203.24.202.0/24
203.24.212.0/23
203.24.217.0/24
203.24.219.0/24
203.24.244.0/24
203.25.19.0/22
203.25.46.0/24
203.25.64.0/23
203.25.91.0/24
203.25.99.0/23
203.25.106.0/24
203.25.131.0/24
203.25.135.0/24
203.25.138.0/24
203.25.147.0/24
203.25.153.0/22
203.25.164.0/24
203.25.166.0/24
203.25.174.0/23
203.25.180.0/24
203.25.182.0/24
203.25.191.0/24
203.25.199.0/23
203.25.202.0/23
203.25.208.0/20
203.25.229.0/24
203.25.235.0/23
203.25.242.0/24
203.26.12.0/24
203.26.34.0/24
203.26.49.0/23
203.26.55.0/22
203.26.60.0/24
203.26.65.0/24
203.26.68.0/24
203.26.76.0/24
203.26.80.0/24
203.26.84.0/24
203.26.97.0/24
203.26.102.0/23
203.26.115.0/23
203.26.129.0/24
203.26.143.0/23
203.26.148.0/23
203.26.154.0/24
203.26.158.0/23
203.26.170.0/24
203.26.173.0/24
203.26.176.0/24
203.26.185.0/24
203.26.202.0/23
203.26.210.0/24
203.26.214.0/24
203.26.222.0/24
203.26.224.0/24
203.26.228.0/24
203.26.232.0/24
203.27.0.0/24
203.27.10.0/24
203.27.15.0/23
203.27.20.0/24
203.27.22.0/23
203.27.40.0/24
203.27.45.0/24
203.27.53.0/24
203.27.65.0/23
203.27.81.0/24
203.27.88.0/24
203.27.102.0/24
203.27.109.0/24
203.27.117.0/24
203.27.121.0/22
203.27.125.0/24
203.27.200.0/24
203.27.202.0/24
203.27.233.0/24
203.27.241.0/24
203.27.250.0/24
203.28.10.0/24
203.28.12.0/24
203.28.33.0/22
203.28.43.0/23
203.28.54.0/24
203.28.56.0/24
203.28.73.0/23
203.28.76.0/24
203.28.86.0/24
203.28.88.0/24
203.28.112.0/24
203.28.131.0/24
203.28.136.0/24
203.28.140.0/24
203.28.145.0/24
203.28.165.0/24
203.28.169.0/23
203.28.178.0/23
203.28.185.0/24
203.28.187.0/24
203.28.196.0/24
203.28.226.0/23
203.28.239.0/24
203.29.2.0/24
203.29.8.0/23
203.29.13.0/23
203.29.28.0/24
203.29.46.0/24
203.29.57.0/24
203.29.61.0/24
203.29.63.0/24
203.29.69.0/24
203.29.73.0/24
203.29.81.0/24
203.29.90.0/24
203.29.95.0/24
203.29.100.0/24
203.29.103.0/24
203.29.112.0/24
203.29.120.0/22
203.29.182.0/23
203.29.187.0/24
203.29.189.0/23
203.29.205.0/24
203.29.210.0/24
203.29.217.0/24
203.29.227.0/24
203.29.231.0/24
203.29.233.0/23
203.29.248.0/24
203.29.254.0/23
203.30.16.0/23
203.30.25.0/24
203.30.27.0/24
203.30.29.0/24
203.30.66.0/24
203.30.81.0/24
203.30.87.0/24
203.30.111.0/24
203.30.121.0/24
203.30.123.0/24
203.30.152.0/24
203.30.156.0/24
203.30.162.0/24
203.30.173.0/24
203.30.175.0/24
203.30.187.0/24
203.30.194.0/24
203.30.217.0/24
203.30.220.0/24
203.30.222.0/24
203.30.232.0/23
203.30.235.0/24
203.30.240.0/23
203.30.246.0/24
203.30.250.0/23
203.31.45.0/23
203.31.49.0/24
203.31.51.0/24
203.31.54.0/23
203.31.69.0/24
203.31.72.0/24
203.31.80.0/24
203.31.85.0/24
203.31.97.0/24
203.31.105.0/23
203.31.108.0/23
203.31.124.0/24
203.31.162.0/24
203.31.174.0/24
203.31.177.0/24
203.31.181.0/24
203.31.187.0/24
203.31.189.0/24
203.31.204.0/24
203.31.220.0/24
203.31.222.0/23
203.31.225.0/24
203.31.229.0/24
203.31.248.0/23
203.31.253.0/24
203.32.20.0/24
203.32.48.0/23
203.32.56.0/24
203.32.60.0/24
203.32.62.0/24
203.32.68.0/23
203.32.76.0/24
203.32.81.0/24
203.32.84.0/23
203.32.95.0/24
203.32.102.0/24
203.32.105.0/24
203.32.130.0/24
203.32.133.0/24
203.32.140.0/24
203.32.152.0/24
203.32.186.0/23
203.32.192.0/24
203.32.196.0/24
203.32.203.0/22
203.32.212.0/24
203.33.4.0/24
203.33.7.0/24
203.33.21.0/24
203.33.26.0/24
203.33.32.0/24
203.33.63.0/23
203.33.67.0/23
203.33.73.0/24
203.33.79.0/24
203.33.100.0/24
203.33.122.0/24
203.33.129.0/24
203.33.131.0/24
203.33.145.0/24
203.33.156.0/24
203.33.158.0/23
203.33.174.0/24
203.33.185.0/24
203.33.200.0/24
203.33.202.0/22
203.33.206.0/23
203.33.214.0/23
203.33.224.0/22
203.33.233.0/24
203.33.243.0/24
203.33.250.0/24
203.34.4.0/24
203.34.21.0/24
203.34.27.0/24
203.34.39.0/24
203.34.48.0/23
203.34.54.0/24
203.34.56.0/23
203.34.67.0/24
203.34.69.0/24
203.34.76.0/24
203.34.92.0/24
203.34.106.0/24
203.34.113.0/24
203.34.147.0/24
203.34.150.0/24
203.34.152.0/23
203.34.161.0/23
203.34.187.0/24
203.34.204.0/22
203.34.232.0/24
203.34.240.0/24
203.34.242.0/24
203.34.245.0/24
203.34.251.0/24
203.55.2.0/22
203.55.10.0/24
203.55.13.0/24
203.55.22.0/24
203.55.30.0/24
203.55.93.0/24
203.55.101.0/24
203.55.109.0/23
203.55.116.0/23
203.55.119.0/24
203.55.128.0/23
203.55.146.0/23
203.55.192.0/24
203.55.196.0/24
203.55.218.0/23
203.55.221.0/24
203.55.224.0/24
203.56.1.0/24
203.56.4.0/24
203.56.12.0/24
203.56.24.0/24
203.56.38.0/24
203.56.40.0/24
203.56.46.0/24
203.56.68.0/23
203.56.82.0/22
203.56.95.0/24
203.56.110.0/24
203.56.121.0/24
203.56.161.0/24
203.56.169.0/24
203.56.172.0/23
203.56.175.0/24
203.56.183.0/24
203.56.185.0/24
203.56.187.0/24
203.56.192.0/24
203.56.198.0/24
203.56.201.0/24
203.56.208.0/22
203.56.214.0/24
203.56.216.0/24
203.56.227.0/23
203.56.231.0/23
203.56.240.0/24
203.56.252.0/24
203.56.254.0/24
203.57.5.0/23
203.57.12.0/23
203.57.28.0/24
203.57.39.0/24
203.57.46.0/24
203.57.58.0/24
203.57.61.0/24
203.57.66.0/24
203.57.69.0/22
203.57.73.0/24
203.57.90.0/24
203.57.101.0/24
203.57.109.0/24
203.57.123.0/24
203.57.157.0/24
203.57.200.0/24
203.57.202.0/24
203.57.206.0/24
203.57.222.0/24
203.57.224.0/20
203.57.246.0/23
203.57.249.0/24
203.57.253.0/22
203.62.2.0/24
203.62.131.0/24
203.62.139.0/24
203.62.161.0/24
203.62.197.0/24
203.62.228.0/22
203.62.234.0/24
203.62.246.0/24
203.76.160.0/22
203.76.168.0/22
203.76.208.0/20
203.76.240.0/22
203.77.180.0/22
203.78.48.0/20
203.78.156.0/22
203.79.0.0/20
203.80.4.0/23
203.80.32.0/20
203.80.57.0/24
203.80.129.0/24
203.80.132.0/22
203.80.144.0/20
203.81.16.0/20
203.81.244.0/22
203.82.0.0/23
203.82.112.0/20
203.82.224.0/20
203.83.0.0/22
203.83.8.0/21
203.83.56.0/21
203.83.224.0/20
203.86.0.0/17
203.86.108.0/19
203.86.250.0/24
203.86.254.0/23
203.88.32.0/19
203.88.192.0/19
203.89.0.0/22
203.89.8.0/23
203.89.100.0/22
203.89.133.0/24
203.89.136.0/22
203.89.144.0/24
203.90.0.0/22
203.90.8.0/21
203.90.128.0/17
203.91.32.0/19
203.91.96.0/20
203.91.120.0/21
203.92.0.0/22
203.92.6.0/24
203.92.160.0/19
203.93.0.0/15
203.95.0.0/21
203.95.96.0/17
203.95.200.0/20
203.95.224.0/19
203.99.16.0/20
203.99.80.0/20
203.100.32.0/20
203.100.58.0/24
203.100.60.0/24
203.100.63.0/24
203.100.80.0/18
203.100.192.0/20
203.104.32.0/20
203.105.96.0/18
203.107.0.0/17
203.110.160.0/19
203.110.208.0/20
203.110.232.0/22
203.114.80.0/20
203.114.244.0/22
203.118.192.0/19
203.118.241.0/24
203.118.248.0/22
203.119.24.0/20
203.119.80.0/22
203.119.85.0/24
203.119.113.0/21
203.119.129.0/21
203.119.136.0/20
203.119.146.0/23
203.119.149.0/24
203.119.151.0/19
203.119.172.0/21
203.119.178.0/21
203.119.185.0/21
203.119.192.0/22
203.119.196.0/21
203.119.204.0/20
203.119.215.0/20
203.119.232.0/20
203.119.247.0/20
203.123.58.0/24
203.128.32.0/19
203.128.96.0/19
203.130.32.0/19
203.132.32.0/19
203.134.240.0/21
203.135.96.0/19
203.135.160.0/20
203.142.219.0/24
203.142.224.0/19
203.144.96.0/19
203.145.0.0/19
203.148.0.0/17
203.148.86.0/23
203.149.92.0/22
203.152.64.0/19
203.152.128.0/19
203.153.0.0/22
203.156.192.0/18
203.158.16.0/21
203.160.52.0/22
203.160.129.0/24
203.160.192.0/19
203.161.0.0/22
203.161.180.0/24
203.161.183.0/24
203.161.192.0/19
203.166.160.0/19
203.167.28.0/22
203.168.0.0/19
203.170.58.0/23
203.171.0.0/22
203.171.208.0/24
203.171.224.0/20
203.174.4.0/24
203.174.6.0/23
203.174.96.0/19
203.175.128.0/19
203.175.192.0/16
203.176.168.0/21
203.184.80.0/20
203.185.189.0/24
203.187.160.0/19
203.189.0.0/23
203.189.6.0/23
203.189.112.0/22
203.189.192.0/19
203.189.240.0/22
203.190.96.0/20
203.190.249.0/24
203.191.0.0/22
203.191.5.0/24
203.191.7.0/24
203.191.16.0/21
203.191.28.0/22
203.191.64.0/18
203.191.133.0/24
203.191.144.0/20
203.192.0.0/19
203.193.224.0/19
203.195.64.0/19
203.195.128.0/16
203.196.28.0/22
203.201.181.0/23
203.202.236.0/22
203.205.64.0/19
203.205.130.0/22
203.205.148.0/21
203.205.158.0/24
203.205.160.0/20
203.205.180.0/21
203.205.189.0/23
203.205.192.0/24
203.205.194.0/23
203.205.198.0/19
203.205.225.0/20
203.205.241.0/24
203.205.243.0/21
203.207.64.0/16
203.208.32.0/19
203.209.224.0/19
203.212.0.0/20
203.212.80.0/20
203.215.146.0/24
203.217.164.0/22
203.223.17.0/23
204.55.160.0/24
204.69.150.0/24
204.217.160.0/23
204.217.163.0/24
205.198.40.0/21
206.182.221.0/24
206.232.64.0/20
207.117.165.0/24
207.209.206.0/24
208.81.205.0/24
209.146.3.0/24
210.2.0.0/19
210.5.0.0/19
210.5.128.0/19
210.7.56.0/21
210.12.0.0/15
210.14.64.0/19
210.14.112.0/15
210.16.104.0/22
210.16.128.0/18
210.21.0.0/15
210.23.32.0/19
210.25.0.0/11
210.51.0.0/14
210.56.192.0/19
210.72.0.0/13
210.79.64.0/18
210.79.224.0/19
210.82.0.0/15
210.87.128.0/18
210.185.192.0/18
210.192.96.0/19
211.64.0.0/13
211.80.0.0/11
211.136.0.0/11
211.152.157.0/12
212.64.0.0/17
212.129.128.0/17
213.170.223.0/24
213.182.216.0/21
213.199.169.0/24
216.247.108.0/24
218.0.0.0/11
218.30.64.0/15
218.56.0.0/10
218.98.112.0/15
218.100.92.0/16
218.104.0.0/13
218.185.192.0/19
218.185.240.0/24
218.185.244.0/22
218.192.0.0/12
218.240.0.0/13
218.249.0.0/16
219.72.0.0/16
219.82.0.0/16
219.83.128.0/17
219.90.68.0/20
219.128.0.0/11
219.216.0.0/11
219.242.0.0/13
220.101.192.0/18
220.112.0.0/14
220.152.128.0/17
220.154.0.0/15
220.158.240.0/22
220.160.0.0/10
220.231.0.0/18
220.231.128.0/17
220.232.64.0/18
220.234.0.0/16
220.242.0.0/15
220.247.136.0/21
220.248.0.0/13
221.0.0.0/12
221.13.0.0/14
221.122.0.0/15
221.128.128.0/14
221.133.240.0/20
221.136.0.0/15
221.172.0.0/12
221.192.0.0/13
221.199.224.0/10
222.16.0.0/9
222.125.0.0/16
222.126.128.0/17
222.128.0.0/12
222.160.0.0/14
222.168.0.0/10
222.240.0.0/12
223.0.0.0/12
223.20.0.0/15
223.27.162.0/24
223.27.184.0/22
223.29.208.0/22
223.29.252.0/24
223.64.0.0/10
223.120.128.0/17
223.121.128.0/17
223.122.128.0/13
223.144.0.0/11
223.166.0.0/15
223.192.0.0/15
223.198.0.0/15
223.201.0.0/14
223.208.0.0/13
223.220.0.0/15
223.223.176.0/19
223.240.0.0/12
223.252.128.0/18
223.252.174.0/17
223.254.0.0/15
223.255.236.0/22
223.255.252.0/23
